{
  "version": "14.0.4",
  "vulnerabilities": [
    {
      "id": "a4587e2088ad7fa0d4e1b9c8173284195f257b5c1b70fae831729b317e6f601d",
      "category": "dependency_scanning",
      "name": "Allocation of File Descriptors or Handles Without Limits or Throttling",
      "message": "Allocation of File Descriptors or Handles Without Limits or Throttling in github.com/minio/minio",
      "description": "Minio a Allocation of Memory Without Limits or Throttling vulnerability in write-to-RAM.",
      "cve": "go.sum:github.com/minio/minio:gemnasium:051e7fdd-4e0a-4dfd-ba52-083ee235a580",
      "severity": "High",
      "solution": "Unfortunately, there is no solution available yet.",
      "scanner": {
        "id": "gemnasium",
        "name": "Gemnasium"
      },
      "location": {
        "file": "go.sum",
        "dependency": {
          "package": {
            "name": "github.com/minio/minio"
          },
          "version": "v0.0.0-20180419184637-5a16671f721f"
        }
      },
      "identifiers": [
        {
          "type": "gemnasium",
          "name": "Gemnasium-051e7fdd-4e0a-4dfd-ba52-083ee235a580",
          "value": "051e7fdd-4e0a-4dfd-ba52-083ee235a580",
          "url": "https://gitlab.com/gitlab-org/security-products/gemnasium-db/-/blob/26c90d4a2dd9901bd9c18fc809f9c692f56e2979/go/github.com/minio/minio/CVE-2018-1000538.yml"
        },
        {
          "type": "cve",
          "name": "CVE-2018-1000538",
          "value": "CVE-2018-1000538",
          "url": "https://cve.mitre.org/cgi-bin/cvename.cgi?name=CVE-2018-1000538"
        }
      ],
      "links": [
        {
          "url": "https://github.com/minio/minio/pull/5957"
        },
        {
          "url": "https://nvd.nist.gov/vuln/detail/CVE-2018-1000538"
        }
      ],
      "details": {
        "vulnerable_package": {
          "name": "Vulnerable Package",
          "type": "text",
          "value": "github.com/minio/minio:v0.0.0-20180419184637-5a16671f721f"
        }
      }
    },
    {
      "id": "143262f34952d00d3bb1628b399e60ee56d772e797f095b8c6a49be50c252870",
      "category": "dependency_scanning",
      "name": "Concurrent Execution using Shared Resource with Improper Synchronization (Race Condition)",
      "message": "Concurrent Execution using Shared Resource with Improper Synchronization (Race Condition) in github.com/astaxie/beego",
      "description": "The File Session Manager in Beego allows local users to read session files because there is a race condition involving file creation within a directory with weak permissions.",
      "cve": "go.sum:github.com/astaxie/beego:gemnasium:5cbdb968-d76c-4285-9597-33fbb14d4ac2",
      "severity": "Medium",
      "solution": "Upgrade to version 1.10.1 or above.",
      "scanner": {
        "id": "gemnasium",
        "name": "Gemnasium"
      },
      "location": {
        "file": "go.sum",
        "dependency": {
          "package": {
            "name": "github.com/astaxie/beego"
          },
          "version": "v1.10.0"
        }
      },
      "identifiers": [
        {
          "type": "gemnasium",
          "name": "Gemnasium-5cbdb968-d76c-4285-9597-33fbb14d4ac2",
          "value": "5cbdb968-d76c-4285-9597-33fbb14d4ac2",
          "url": "https://gitlab.com/gitlab-org/security-products/gemnasium-db/-/blob/26c90d4a2dd9901bd9c18fc809f9c692f56e2979/go/github.com/astaxie/beego/CVE-2019-16354.yml"
        },
        {
          "type": "cve",
          "name": "CVE-2019-16354",
          "value": "CVE-2019-16354",
          "url": "https://cve.mitre.org/cgi-bin/cvename.cgi?name=CVE-2019-16354"
        }
      ],
      "links": [
        {
          "url": "https://nvd.nist.gov/vuln/detail/CVE-2019-16354"
        }
      ],
      "details": {
        "vulnerable_package": {
          "name": "Vulnerable Package",
          "type": "text",
          "value": "github.com/astaxie/beego:v1.10.0"
        }
      }
    },
    {
      "id": "07e8601765862ca23bd3b9eeed3b272b27e3551540189ee81c9a29660d354e23",
      "category": "dependency_scanning",
      "name": "Incorrect Default Permissions",
      "message": "Incorrect Default Permissions in github.com/astaxie/beego",
      "description": "The File Session Manager in Beego allows local users to read session files because of weak permissions for individual files.",
      "cve": "go.sum:github.com/astaxie/beego:gemnasium:b9fefee9-c6b2-460d-a61a-e02696c8900b",
      "severity": "Medium",
      "solution": "Upgrade to version 1.10.1 or above.",
      "scanner": {
        "id": "gemnasium",
        "name": "Gemnasium"
      },
      "location": {
        "file": "go.sum",
        "dependency": {
          "package": {
            "name": "github.com/astaxie/beego"
          },
          "version": "v1.10.0"
        }
      },
      "identifiers": [
        {
          "type": "gemnasium",
          "name": "Gemnasium-b9fefee9-c6b2-460d-a61a-e02696c8900b",
          "value": "b9fefee9-c6b2-460d-a61a-e02696c8900b",
          "url": "https://gitlab.com/gitlab-org/security-products/gemnasium-db/-/blob/26c90d4a2dd9901bd9c18fc809f9c692f56e2979/go/github.com/astaxie/beego/CVE-2019-16355.yml"
        },
        {
          "type": "cve",
          "name": "CVE-2019-16355",
          "value": "CVE-2019-16355",
          "url": "https://cve.mitre.org/cgi-bin/cvename.cgi?name=CVE-2019-16355"
        }
      ],
      "links": [
        {
          "url": "https://nvd.nist.gov/vuln/detail/CVE-2019-16355"
        }
      ],
      "details": {
        "vulnerable_package": {
          "name": "Vulnerable Package",
          "type": "text",
          "value": "github.com/astaxie/beego:v1.10.0"
        }
      }
    },
    {
      "id": "a0cfdc888438b9ae482509389014abeba67561c3ff766aebc5230d0039209c00",
      "category": "dependency_scanning",
      "name": "XML Entity Expansion",
      "message": "XML Entity Expansion in gopkg.in/yaml.v2",
      "description": "go-yaml is vulnerable to a Billion Laughs Attack.",
      "cve": "go.sum:gopkg.in/yaml.v2:gemnasium:7368f513-0aa9-4e34-a08d-40ea81f48e0e",
      "severity": "Unknown",
      "solution": "Upgrade to version 2.2.3 or above.",
      "scanner": {
        "id": "gemnasium",
        "name": "Gemnasium"
      },
      "location": {
        "file": "go.sum",
        "dependency": {
          "package": {
            "name": "gopkg.in/yaml.v2"
          },
          "version": "v2.2.2"
        }
      },
      "identifiers": [
        {
          "type": "gemnasium",
          "name": "Gemnasium-7368f513-0aa9-4e34-a08d-40ea81f48e0e",
          "value": "7368f513-0aa9-4e34-a08d-40ea81f48e0e",
          "url": "https://gitlab.com/gitlab-org/security-products/gemnasium-db/-/blob/26c90d4a2dd9901bd9c18fc809f9c692f56e2979/go/gopkg.in/yaml.v2/GMS-2019-2.yml"
        }
      ],
      "links": [
        {
          "url": "https://github.com/docker/cli/pull/2117"
        }
      ],
      "details": {
        "vulnerable_package": {
          "name": "Vulnerable Package",
          "type": "text",
          "value": "gopkg.in/yaml.v2:v2.2.2"
        }
      }
    }
  ],
  "dependency_files": [
    {
      "path": "go.sum",
      "package_manager": "go",
      "dependencies": [
        {
          "package": {
            "name": "github.com/astaxie/beego"
          },
          "version": "v1.10.0"
        },
        {
          "package": {
            "name": "github.com/davecgh/go-spew"
          },
          "version": "v1.1.1"
        },
        {
          "package": {
            "name": "github.com/konsorten/go-windows-terminal-sequences"
          },
          "version": "v1.0.1"
        },
        {
          "package": {
            "name": "github.com/minio/minio"
          },
          "version": "v0.0.0-20180419184637-5a16671f721f"
        },
        {
          "package": {
            "name": "github.com/minio/minio-go"
          },
          "version": "v6.0.14"
        },
        {
          "package": {
            "name": "github.com/minio/sha256-simd"
          },
          "version": "v0.1.1"
        },
        {
          "package": {
            "name": "github.com/pmezard/go-difflib"
          },
          "version": "v1.0.0"
        },
        {
          "package": {
            "name": "github.com/sirupsen/logrus"
          },
          "version": "v1.4.2"
        },
        {
          "package": {
            "name": "github.com/stretchr/objx"
          },
          "version": "v0.1.1"
        },
        {
          "package": {
            "name": "github.com/stretchr/testify"
          },
          "version": "v1.2.2"
        },
        {
          "package": {
            "name": "golang.org/x/sys"
          },
          "version": "v0.0.0-20190422165155-953cdadca894"
        },
        {
          "package": {
            "name": "golang.org/x/sys"
          },
          "version": "v0.0.0-20191026070338-33540a1f6037"
        },
        {
          "package": {
            "name": "gopkg.in/check.v1"
          },
          "version": "v0.0.0-20161208181325-20d25e280405"
        },
        {
          "package": {
            "name": "gopkg.in/fake-package"
          },
          "version": "v0.0.0-20161208181325-20d25e280405"
        },
        {
          "package": {
            "name": "gopkg.in/yaml.v2"
          },
          "version": "v2.2.2"
        }
      ]
    }
  ],
  "scan": {
    "analyzer": {
      "id": "gemnasium",
      "name": "Gemnasium",
      "url": "https://gitlab.com/gitlab-org/security-products/analyzers/gemnasium",
      "vendor": {
        "name": "GitLab"
      },
      "version": "3.6.0"
    },
    "scanner": {
      "id": "gemnasium",
      "name": "Gemnasium",
      "url": "https://gitlab.com/gitlab-org/security-products/analyzers/gemnasium",
      "vendor": {
        "name": "GitLab"
      },
      "version": "2.33.0"
    },
    "type": "dependency_scanning",
    "start_time": "2022-02-17T02:27:25",
    "end_time": "2022-02-17T02:27:26",
    "status": "success"
  }
}
