{
  "version": "14.0.4",
  "vulnerabilities": [
    {
      "id": "663757bbab45e6097c9f00ce2fc35ac9bf527cf48dfbecfddc3d9017bfa2dff6",
      "category": "dependency_scanning",
      "name": "Improper Input Validation",
      "message": "Improper Input Validation in decamelize",
      "description": "Decamelize uses regular expressions to evaluate a string and takes unescaped separator values, which can be used to create a denial of service attack.",
      "cve": "package-lock.json:decamelize:gemnasium:cfa05151-753f-4373-833c-a27e772c87a2",
      "severity": "High",
      "solution": "Upgrade to version 1.1.2 or above.",
      "scanner": {
        "id": "gemnasium",
        "name": "Gemnasium"
      },
      "location": {
        "file": "package-lock.json",
        "dependency": {
          "package": {
            "name": "decamelize"
          },
          "version": "1.1.1"
        }
      },
      "identifiers": [
        {
          "type": "gemnasium",
          "name": "Gemnasium-cfa05151-753f-4373-833c-a27e772c87a2",
          "value": "cfa05151-753f-4373-833c-a27e772c87a2",
          "url": "https://gitlab.com/gitlab-org/security-products/gemnasium-db/-/blob/v1.2.142/npm/decamelize/CVE-2017-16023.yml"
        },
        {
          "type": "cve",
          "name": "CVE-2017-16023",
          "value": "CVE-2017-16023",
          "url": "https://cve.mitre.org/cgi-bin/cvename.cgi?name=CVE-2017-16023"
        }
      ],
      "links": [
        {
          "url": "https://nvd.nist.gov/vuln/detail/CVE-2017-16023"
        }
      ],
      "details": {
        "vulnerable_package": {
          "type": "text",
          "name": "Vulnerable Package",
          "value": "decamelize:1.1.1"
        }
      }
    }
  ],
  "dependency_files": [
    {
      "path": "package-lock.json",
      "package_manager": "npm",
      "dependencies": [
        {
          "package": {
            "name": "abab"
          },
          "version": "2.0.3"
        },
        {
          "package": {
            "name": "acorn"
          },
          "version": "5.7.3"
        },
        {
          "package": {
            "name": "acorn"
          },
          "version": "6.4.0"
        },
        {
          "package": {
            "name": "acorn-globals"
          },
          "version": "4.3.4"
        },
        {
          "package": {
            "name": "acorn-walk"
          },
          "version": "6.2.0"
        },
        {
          "package": {
            "name": "ajv"
          },
          "version": "6.10.2"
        },
        {
          "package": {
            "name": "align-text"
          },
          "version": "0.1.4"
        },
        {
          "package": {
            "name": "amdefine"
          },
          "version": "1.0.1"
        },
        {
          "package": {
            "name": "ansi-regex"
          },
          "version": "2.1.1"
        },
        {
          "package": {
            "name": "ansi-regex"
          },
          "version": "3.0.0"
        },
        {
          "package": {
            "name": "ansi-styles"
          },
          "version": "2.2.1"
        },
        {
          "package": {
            "name": "append-transform"
          },
          "version": "0.4.0"
        },
        {
          "package": {
            "name": "archy"
          },
          "version": "1.0.0"
        },
        {
          "package": {
            "name": "arr-diff"
          },
          "version": "4.0.0"
        },
        {
          "package": {
            "name": "arr-flatten"
          },
          "version": "1.1.0"
        },
        {
          "package": {
            "name": "arr-union"
          },
          "version": "3.1.0"
        },
        {
          "package": {
            "name": "array-equal"
          },
          "version": "1.0.0"
        },
        {
          "package": {
            "name": "array-unique"
          },
          "version": "0.3.2"
        },
        {
          "package": {
            "name": "arrify"
          },
          "version": "1.0.1"
        },
        {
          "package": {
            "name": "asn1"
          },
          "version": "0.2.4"
        },
        {
          "package": {
            "name": "assert-plus"
          },
          "version": "1.0.0"
        },
        {
          "package": {
            "name": "assign-symbols"
          },
          "version": "1.0.0"
        },
        {
          "package": {
            "name": "async"
          },
          "version": "1.5.2"
        },
        {
          "package": {
            "name": "async-limiter"
          },
          "version": "1.0.1"
        },
        {
          "package": {
            "name": "asynckit"
          },
          "version": "0.4.0"
        },
        {
          "package": {
            "name": "atob"
          },
          "version": "2.1.1"
        },
        {
          "package": {
            "name": "aws-sign2"
          },
          "version": "0.7.0"
        },
        {
          "package": {
            "name": "aws4"
          },
          "version": "1.9.0"
        },
        {
          "package": {
            "name": "babel-code-frame"
          },
          "version": "6.26.0"
        },
        {
          "package": {
            "name": "babel-generator"
          },
          "version": "6.26.1"
        },
        {
          "package": {
            "name": "babel-messages"
          },
          "version": "6.23.0"
        },
        {
          "package": {
            "name": "babel-runtime"
          },
          "version": "6.26.0"
        },
        {
          "package": {
            "name": "babel-template"
          },
          "version": "6.26.0"
        },
        {
          "package": {
            "name": "babel-traverse"
          },
          "version": "6.26.0"
        },
        {
          "package": {
            "name": "babel-types"
          },
          "version": "6.26.0"
        },
        {
          "package": {
            "name": "babylon"
          },
          "version": "6.18.0"
        },
        {
          "package": {
            "name": "balanced-match"
          },
          "version": "1.0.0"
        },
        {
          "package": {
            "name": "base"
          },
          "version": "0.11.2"
        },
        {
          "package": {
            "name": "bcrypt-pbkdf"
          },
          "version": "1.0.2"
        },
        {
          "package": {
            "name": "brace-expansion"
          },
          "version": "1.1.11"
        },
        {
          "package": {
            "name": "braces"
          },
          "version": "2.3.2"
        },
        {
          "package": {
            "name": "browser-process-hrtime"
          },
          "version": "0.1.3"
        },
        {
          "package": {
            "name": "builtin-modules"
          },
          "version": "1.1.1"
        },
        {
          "package": {
            "name": "cache-base"
          },
          "version": "1.0.1"
        },
        {
          "package": {
            "name": "caching-transform"
          },
          "version": "1.0.1"
        },
        {
          "package": {
            "name": "camelcase"
          },
          "version": "1.2.1"
        },
        {
          "package": {
            "name": "camelcase"
          },
          "version": "4.1.0"
        },
        {
          "package": {
            "name": "caseless"
          },
          "version": "0.12.0"
        },
        {
          "package": {
            "name": "center-align"
          },
          "version": "0.1.3"
        },
        {
          "package": {
            "name": "chalk"
          },
          "version": "1.1.3"
        },
        {
          "package": {
            "name": "class-utils"
          },
          "version": "0.3.6"
        },
        {
          "package": {
            "name": "cliui"
          },
          "version": "2.1.0"
        },
        {
          "package": {
            "name": "cliui"
          },
          "version": "4.1.0"
        },
        {
          "package": {
            "name": "code-point-at"
          },
          "version": "1.1.0"
        },
        {
          "package": {
            "name": "collection-visit"
          },
          "version": "1.0.0"
        },
        {
          "package": {
            "name": "combined-stream"
          },
          "version": "1.0.8"
        },
        {
          "package": {
            "name": "commondir"
          },
          "version": "1.0.1"
        },
        {
          "package": {
            "name": "component-emitter"
          },
          "version": "1.2.1"
        },
        {
          "package": {
            "name": "concat-map"
          },
          "version": "0.0.1"
        },
        {
          "package": {
            "name": "convert-source-map"
          },
          "version": "1.5.1"
        },
        {
          "package": {
            "name": "copy-descriptor"
          },
          "version": "0.1.1"
        },
        {
          "package": {
            "name": "core-js"
          },
          "version": "2.5.6"
        },
        {
          "package": {
            "name": "core-util-is"
          },
          "version": "1.0.2"
        },
        {
          "package": {
            "name": "cross-spawn"
          },
          "version": "4.0.2"
        },
        {
          "package": {
            "name": "cross-spawn"
          },
          "version": "5.1.0"
        },
        {
          "package": {
            "name": "cssom"
          },
          "version": "0.3.8"
        },
        {
          "package": {
            "name": "cssstyle"
          },
          "version": "1.4.0"
        },
        {
          "package": {
            "name": "dashdash"
          },
          "version": "1.14.1"
        },
        {
          "package": {
            "name": "data-urls"
          },
          "version": "1.1.0"
        },
        {
          "package": {
            "name": "debug"
          },
          "version": "2.6.9"
        },
        {
          "package": {
            "name": "debug"
          },
          "version": "3.1.0"
        },
        {
          "package": {
            "name": "debug-log"
          },
          "version": "1.0.1"
        },
        {
          "package": {
            "name": "decamelize"
          },
          "version": "1.1.1"
        },
        {
          "package": {
            "name": "decamelize"
          },
          "version": "1.2.0"
        },
        {
          "package": {
            "name": "decode-uri-component"
          },
          "version": "0.2.0"
        },
        {
          "package": {
            "name": "deep-is"
          },
          "version": "0.1.3"
        },
        {
          "package": {
            "name": "default-require-extensions"
          },
          "version": "1.0.0"
        },
        {
          "package": {
            "name": "define-property"
          },
          "version": "0.2.5"
        },
        {
          "package": {
            "name": "define-property"
          },
          "version": "1.0.0"
        },
        {
          "package": {
            "name": "define-property"
          },
          "version": "2.0.2"
        },
        {
          "package": {
            "name": "delayed-stream"
          },
          "version": "1.0.0"
        },
        {
          "package": {
            "name": "detect-indent"
          },
          "version": "4.0.0"
        },
        {
          "package": {
            "name": "domexception"
          },
          "version": "1.0.1"
        },
        {
          "package": {
            "name": "ecc-jsbn"
          },
          "version": "0.1.2"
        },
        {
          "package": {
            "name": "error-ex"
          },
          "version": "1.3.1"
        },
        {
          "package": {
            "name": "escape-string-regexp"
          },
          "version": "1.0.5"
        },
        {
          "package": {
            "name": "escodegen"
          },
          "version": "1.12.0"
        },
        {
          "package": {
            "name": "esprima"
          },
          "version": "3.1.3"
        },
        {
          "package": {
            "name": "estraverse"
          },
          "version": "4.3.0"
        },
        {
          "package": {
            "name": "esutils"
          },
          "version": "2.0.2"
        },
        {
          "package": {
            "name": "esutils"
          },
          "version": "2.0.3"
        },
        {
          "package": {
            "name": "execa"
          },
          "version": "0.7.0"
        },
        {
          "package": {
            "name": "expand-brackets"
          },
          "version": "2.1.4"
        },
        {
          "package": {
            "name": "extend"
          },
          "version": "3.0.2"
        },
        {
          "package": {
            "name": "extend-shallow"
          },
          "version": "2.0.1"
        },
        {
          "package": {
            "name": "extend-shallow"
          },
          "version": "3.0.2"
        },
        {
          "package": {
            "name": "extglob"
          },
          "version": "2.0.4"
        },
        {
          "package": {
            "name": "extsprintf"
          },
          "version": "1.3.0"
        },
        {
          "package": {
            "name": "fast-deep-equal"
          },
          "version": "2.0.1"
        },
        {
          "package": {
            "name": "fast-json-stable-stringify"
          },
          "version": "2.0.0"
        },
        {
          "package": {
            "name": "fast-levenshtein"
          },
          "version": "2.0.6"
        },
        {
          "package": {
            "name": "fill-range"
          },
          "version": "4.0.0"
        },
        {
          "package": {
            "name": "find-cache-dir"
          },
          "version": "0.1.1"
        },
        {
          "package": {
            "name": "find-up"
          },
          "version": "1.1.2"
        },
        {
          "package": {
            "name": "find-up"
          },
          "version": "2.1.0"
        },
        {
          "package": {
            "name": "for-in"
          },
          "version": "1.0.2"
        },
        {
          "package": {
            "name": "foreground-child"
          },
          "version": "1.5.6"
        },
        {
          "package": {
            "name": "forever-agent"
          },
          "version": "0.6.1"
        },
        {
          "package": {
            "name": "form-data"
          },
          "version": "2.3.3"
        },
        {
          "package": {
            "name": "fragment-cache"
          },
          "version": "0.2.1"
        },
        {
          "package": {
            "name": "fs.realpath"
          },
          "version": "1.0.0"
        },
        {
          "package": {
            "name": "get-caller-file"
          },
          "version": "1.0.2"
        },
        {
          "package": {
            "name": "get-stream"
          },
          "version": "3.0.0"
        },
        {
          "package": {
            "name": "get-value"
          },
          "version": "2.0.6"
        },
        {
          "package": {
            "name": "getpass"
          },
          "version": "0.1.7"
        },
        {
          "package": {
            "name": "glob"
          },
          "version": "7.1.2"
        },
        {
          "package": {
            "name": "globals"
          },
          "version": "9.18.0"
        },
        {
          "package": {
            "name": "graceful-fs"
          },
          "version": "4.1.11"
        },
        {
          "package": {
            "name": "handlebars"
          },
          "version": "4.0.11"
        },
        {
          "package": {
            "name": "har-schema"
          },
          "version": "2.0.0"
        },
        {
          "package": {
            "name": "har-validator"
          },
          "version": "5.1.3"
        },
        {
          "package": {
            "name": "has-ansi"
          },
          "version": "2.0.0"
        },
        {
          "package": {
            "name": "has-flag"
          },
          "version": "1.0.0"
        },
        {
          "package": {
            "name": "has-value"
          },
          "version": "0.3.1"
        },
        {
          "package": {
            "name": "has-value"
          },
          "version": "1.0.0"
        },
        {
          "package": {
            "name": "has-values"
          },
          "version": "0.1.4"
        },
        {
          "package": {
            "name": "has-values"
          },
          "version": "1.0.0"
        },
        {
          "package": {
            "name": "highlight.js"
          },
          "version": "9.16.2"
        },
        {
          "package": {
            "name": "hosted-git-info"
          },
          "version": "2.6.0"
        },
        {
          "package": {
            "name": "html-encoding-sniffer"
          },
          "version": "1.0.2"
        },
        {
          "package": {
            "name": "http-signature"
          },
          "version": "1.2.0"
        },
        {
          "package": {
            "name": "iconv-lite"
          },
          "version": "0.4.24"
        },
        {
          "package": {
            "name": "imurmurhash"
          },
          "version": "0.1.4"
        },
        {
          "package": {
            "name": "inflight"
          },
          "version": "1.0.6"
        },
        {
          "package": {
            "name": "inherits"
          },
          "version": "2.0.3"
        },
        {
          "package": {
            "name": "invariant"
          },
          "version": "2.2.4"
        },
        {
          "package": {
            "name": "invert-kv"
          },
          "version": "1.0.0"
        },
        {
          "package": {
            "name": "is-accessor-descriptor"
          },
          "version": "0.1.6"
        },
        {
          "package": {
            "name": "is-accessor-descriptor"
          },
          "version": "1.0.0"
        },
        {
          "package": {
            "name": "is-arrayish"
          },
          "version": "0.2.1"
        },
        {
          "package": {
            "name": "is-buffer"
          },
          "version": "1.1.6"
        },
        {
          "package": {
            "name": "is-builtin-module"
          },
          "version": "1.0.0"
        },
        {
          "package": {
            "name": "is-data-descriptor"
          },
          "version": "0.1.4"
        },
        {
          "package": {
            "name": "is-data-descriptor"
          },
          "version": "1.0.0"
        },
        {
          "package": {
            "name": "is-descriptor"
          },
          "version": "0.1.6"
        },
        {
          "package": {
            "name": "is-descriptor"
          },
          "version": "1.0.2"
        },
        {
          "package": {
            "name": "is-extendable"
          },
          "version": "0.1.1"
        },
        {
          "package": {
            "name": "is-extendable"
          },
          "version": "1.0.1"
        },
        {
          "package": {
            "name": "is-finite"
          },
          "version": "1.0.2"
        },
        {
          "package": {
            "name": "is-fullwidth-code-point"
          },
          "version": "1.0.0"
        },
        {
          "package": {
            "name": "is-fullwidth-code-point"
          },
          "version": "2.0.0"
        },
        {
          "package": {
            "name": "is-number"
          },
          "version": "3.0.0"
        },
        {
          "package": {
            "name": "is-number"
          },
          "version": "4.0.0"
        },
        {
          "package": {
            "name": "is-odd"
          },
          "version": "2.0.0"
        },
        {
          "package": {
            "name": "is-plain-object"
          },
          "version": "2.0.4"
        },
        {
          "package": {
            "name": "is-stream"
          },
          "version": "1.1.0"
        },
        {
          "package": {
            "name": "is-typedarray"
          },
          "version": "1.0.0"
        },
        {
          "package": {
            "name": "is-utf8"
          },
          "version": "0.2.1"
        },
        {
          "package": {
            "name": "is-windows"
          },
          "version": "1.0.2"
        },
        {
          "package": {
            "name": "isarray"
          },
          "version": "1.0.0"
        },
        {
          "package": {
            "name": "isexe"
          },
          "version": "2.0.0"
        },
        {
          "package": {
            "name": "isobject"
          },
          "version": "2.1.0"
        },
        {
          "package": {
            "name": "isobject"
          },
          "version": "3.0.1"
        },
        {
          "package": {
            "name": "isstream"
          },
          "version": "0.1.2"
        },
        {
          "package": {
            "name": "istanbul-lib-coverage"
          },
          "version": "1.2.0"
        },
        {
          "package": {
            "name": "istanbul-lib-hook"
          },
          "version": "1.1.0"
        },
        {
          "package": {
            "name": "istanbul-lib-instrument"
          },
          "version": "1.10.1"
        },
        {
          "package": {
            "name": "istanbul-lib-report"
          },
          "version": "1.1.3"
        },
        {
          "package": {
            "name": "istanbul-lib-source-maps"
          },
          "version": "1.2.3"
        },
        {
          "package": {
            "name": "istanbul-reports"
          },
          "version": "1.4.0"
        },
        {
          "package": {
            "name": "js-tokens"
          },
          "version": "3.0.2"
        },
        {
          "package": {
            "name": "jsbn"
          },
          "version": "0.1.1"
        },
        {
          "package": {
            "name": "jsdom"
          },
          "version": "11.12.0"
        },
        {
          "package": {
            "name": "jsesc"
          },
          "version": "1.3.0"
        },
        {
          "package": {
            "name": "json-schema"
          },
          "version": "0.2.3"
        },
        {
          "package": {
            "name": "json-schema-traverse"
          },
          "version": "0.4.1"
        },
        {
          "package": {
            "name": "json-stringify-safe"
          },
          "version": "5.0.1"
        },
        {
          "package": {
            "name": "jsprim"
          },
          "version": "1.4.1"
        },
        {
          "package": {
            "name": "kind-of"
          },
          "version": "3.2.2"
        },
        {
          "package": {
            "name": "kind-of"
          },
          "version": "4.0.0"
        },
        {
          "package": {
            "name": "kind-of"
          },
          "version": "5.1.0"
        },
        {
          "package": {
            "name": "kind-of"
          },
          "version": "6.0.2"
        },
        {
          "package": {
            "name": "lazy-cache"
          },
          "version": "1.0.4"
        },
        {
          "package": {
            "name": "lcid"
          },
          "version": "1.0.0"
        },
        {
          "package": {
            "name": "left-pad"
          },
          "version": "1.3.0"
        },
        {
          "package": {
            "name": "levn"
          },
          "version": "0.3.0"
        },
        {
          "package": {
            "name": "load-json-file"
          },
          "version": "1.1.0"
        },
        {
          "package": {
            "name": "locate-path"
          },
          "version": "2.0.0"
        },
        {
          "package": {
            "name": "lodash"
          },
          "version": "4.17.10"
        },
        {
          "package": {
            "name": "lodash"
          },
          "version": "4.17.15"
        },
        {
          "package": {
            "name": "lodash.sortby"
          },
          "version": "4.7.0"
        },
        {
          "package": {
            "name": "longest"
          },
          "version": "1.0.1"
        },
        {
          "package": {
            "name": "loose-envify"
          },
          "version": "1.3.1"
        },
        {
          "package": {
            "name": "lru-cache"
          },
          "version": "4.1.3"
        },
        {
          "package": {
            "name": "map-cache"
          },
          "version": "0.2.2"
        },
        {
          "package": {
            "name": "map-visit"
          },
          "version": "1.0.0"
        },
        {
          "package": {
            "name": "md5-hex"
          },
          "version": "1.3.0"
        },
        {
          "package": {
            "name": "md5-o-matic"
          },
          "version": "0.1.1"
        },
        {
          "package": {
            "name": "mem"
          },
          "version": "1.1.0"
        },
        {
          "package": {
            "name": "merge-source-map"
          },
          "version": "1.1.0"
        },
        {
          "package": {
            "name": "micromatch"
          },
          "version": "3.1.10"
        },
        {
          "package": {
            "name": "mime-db"
          },
          "version": "1.42.0"
        },
        {
          "package": {
            "name": "mime-types"
          },
          "version": "2.1.25"
        },
        {
          "package": {
            "name": "mimic-fn"
          },
          "version": "1.2.0"
        },
        {
          "package": {
            "name": "minimatch"
          },
          "version": "3.0.4"
        },
        {
          "package": {
            "name": "minimist"
          },
          "version": "0.0.8"
        },
        {
          "package": {
            "name": "mixin-deep"
          },
          "version": "1.3.1"
        },
        {
          "package": {
            "name": "mkdirp"
          },
          "version": "0.5.1"
        },
        {
          "package": {
            "name": "moment"
          },
          "version": "2.24.0"
        },
        {
          "package": {
            "name": "ms"
          },
          "version": "2.0.0"
        },
        {
          "package": {
            "name": "nanomatch"
          },
          "version": "1.2.9"
        },
        {
          "package": {
            "name": "normalize-package-data"
          },
          "version": "2.4.0"
        },
        {
          "package": {
            "name": "normalize.css"
          },
          "version": "7.0.0"
        },
        {
          "package": {
            "name": "npm-run-path"
          },
          "version": "2.0.2"
        },
        {
          "package": {
            "name": "number-is-nan"
          },
          "version": "1.0.1"
        },
        {
          "package": {
            "name": "nwsapi"
          },
          "version": "2.2.0"
        },
        {
          "package": {
            "name": "nyc"
          },
          "version": "11.9.0"
        },
        {
          "package": {
            "name": "oauth-sign"
          },
          "version": "0.9.0"
        },
        {
          "package": {
            "name": "object-assign"
          },
          "version": "4.1.1"
        },
        {
          "package": {
            "name": "object-copy"
          },
          "version": "0.1.0"
        },
        {
          "package": {
            "name": "object-visit"
          },
          "version": "1.0.1"
        },
        {
          "package": {
            "name": "object.pick"
          },
          "version": "1.3.0"
        },
        {
          "package": {
            "name": "once"
          },
          "version": "1.4.0"
        },
        {
          "package": {
            "name": "optimist"
          },
          "version": "0.6.1"
        },
        {
          "package": {
            "name": "optionator"
          },
          "version": "0.8.3"
        },
        {
          "package": {
            "name": "os-homedir"
          },
          "version": "1.0.2"
        },
        {
          "package": {
            "name": "os-locale"
          },
          "version": "2.1.0"
        },
        {
          "package": {
            "name": "p-finally"
          },
          "version": "1.0.0"
        },
        {
          "package": {
            "name": "p-limit"
          },
          "version": "1.2.0"
        },
        {
          "package": {
            "name": "p-locate"
          },
          "version": "2.0.0"
        },
        {
          "package": {
            "name": "p-try"
          },
          "version": "1.0.0"
        },
        {
          "package": {
            "name": "parse-json"
          },
          "version": "2.2.0"
        },
        {
          "package": {
            "name": "parse5"
          },
          "version": "4.0.0"
        },
        {
          "package": {
            "name": "pascalcase"
          },
          "version": "0.1.1"
        },
        {
          "package": {
            "name": "path-exists"
          },
          "version": "2.1.0"
        },
        {
          "package": {
            "name": "path-exists"
          },
          "version": "3.0.0"
        },
        {
          "package": {
            "name": "path-is-absolute"
          },
          "version": "1.0.1"
        },
        {
          "package": {
            "name": "path-key"
          },
          "version": "2.0.1"
        },
        {
          "package": {
            "name": "path-parse"
          },
          "version": "1.0.5"
        },
        {
          "package": {
            "name": "path-type"
          },
          "version": "1.1.0"
        },
        {
          "package": {
            "name": "performance-now"
          },
          "version": "2.1.0"
        },
        {
          "package": {
            "name": "pify"
          },
          "version": "2.3.0"
        },
        {
          "package": {
            "name": "pinkie"
          },
          "version": "2.0.4"
        },
        {
          "package": {
            "name": "pinkie-promise"
          },
          "version": "2.0.1"
        },
        {
          "package": {
            "name": "pkg-dir"
          },
          "version": "1.0.0"
        },
        {
          "package": {
            "name": "pn"
          },
          "version": "1.1.0"
        },
        {
          "package": {
            "name": "posix-character-classes"
          },
          "version": "0.1.1"
        },
        {
          "package": {
            "name": "prelude-ls"
          },
          "version": "1.1.2"
        },
        {
          "package": {
            "name": "pseudomap"
          },
          "version": "1.0.2"
        },
        {
          "package": {
            "name": "psl"
          },
          "version": "1.5.0"
        },
        {
          "package": {
            "name": "punycode"
          },
          "version": "1.4.1"
        },
        {
          "package": {
            "name": "punycode"
          },
          "version": "2.1.1"
        },
        {
          "package": {
            "name": "qs"
          },
          "version": "6.5.2"
        },
        {
          "package": {
            "name": "read-pkg"
          },
          "version": "1.1.0"
        },
        {
          "package": {
            "name": "read-pkg-up"
          },
          "version": "1.0.1"
        },
        {
          "package": {
            "name": "regenerator-runtime"
          },
          "version": "0.11.1"
        },
        {
          "package": {
            "name": "regex-not"
          },
          "version": "1.0.2"
        },
        {
          "package": {
            "name": "repeat-element"
          },
          "version": "1.1.2"
        },
        {
          "package": {
            "name": "repeat-string"
          },
          "version": "1.6.1"
        },
        {
          "package": {
            "name": "repeating"
          },
          "version": "2.0.1"
        },
        {
          "package": {
            "name": "request"
          },
          "version": "2.88.0"
        },
        {
          "package": {
            "name": "request-promise-core"
          },
          "version": "1.1.3"
        },
        {
          "package": {
            "name": "request-promise-native"
          },
          "version": "1.0.8"
        },
        {
          "package": {
            "name": "require-directory"
          },
          "version": "2.1.1"
        },
        {
          "package": {
            "name": "require-main-filename"
          },
          "version": "1.0.1"
        },
        {
          "package": {
            "name": "resolve-from"
          },
          "version": "2.0.0"
        },
        {
          "package": {
            "name": "resolve-url"
          },
          "version": "0.2.1"
        },
        {
          "package": {
            "name": "ret"
          },
          "version": "0.1.15"
        },
        {
          "package": {
            "name": "right-align"
          },
          "version": "0.1.3"
        },
        {
          "package": {
            "name": "rimraf"
          },
          "version": "2.6.2"
        },
        {
          "package": {
            "name": "safe-buffer"
          },
          "version": "5.1.2"
        },
        {
          "package": {
            "name": "safe-regex"
          },
          "version": "1.1.0"
        },
        {
          "package": {
            "name": "safer-buffer"
          },
          "version": "2.1.2"
        },
        {
          "package": {
            "name": "sax"
          },
          "version": "1.2.4"
        },
        {
          "package": {
            "name": "semver"
          },
          "version": "5.5.0"
        },
        {
          "package": {
            "name": "set-blocking"
          },
          "version": "2.0.0"
        },
        {
          "package": {
            "name": "set-value"
          },
          "version": "0.4.3"
        },
        {
          "package": {
            "name": "set-value"
          },
          "version": "2.0.0"
        },
        {
          "package": {
            "name": "shebang-command"
          },
          "version": "1.2.0"
        },
        {
          "package": {
            "name": "shebang-regex"
          },
          "version": "1.0.0"
        },
        {
          "package": {
            "name": "signal-exit"
          },
          "version": "3.0.2"
        },
        {
          "package": {
            "name": "slide"
          },
          "version": "1.1.6"
        },
        {
          "package": {
            "name": "snapdragon"
          },
          "version": "0.8.2"
        },
        {
          "package": {
            "name": "snapdragon-node"
          },
          "version": "2.1.1"
        },
        {
          "package": {
            "name": "snapdragon-util"
          },
          "version": "3.0.1"
        },
        {
          "package": {
            "name": "source-map"
          },
          "version": "0.4.4"
        },
        {
          "package": {
            "name": "source-map"
          },
          "version": "0.5.7"
        },
        {
          "package": {
            "name": "source-map"
          },
          "version": "0.6.1"
        },
        {
          "package": {
            "name": "source-map-resolve"
          },
          "version": "0.5.1"
        },
        {
          "package": {
            "name": "source-map-url"
          },
          "version": "0.4.0"
        },
        {
          "package": {
            "name": "spawn-wrap"
          },
          "version": "1.4.2"
        },
        {
          "package": {
            "name": "spdx-correct"
          },
          "version": "3.0.0"
        },
        {
          "package": {
            "name": "spdx-exceptions"
          },
          "version": "2.1.0"
        },
        {
          "package": {
            "name": "spdx-expression-parse"
          },
          "version": "3.0.0"
        },
        {
          "package": {
            "name": "spdx-license-ids"
          },
          "version": "3.0.0"
        },
        {
          "package": {
            "name": "split-string"
          },
          "version": "3.1.0"
        },
        {
          "package": {
            "name": "sshpk"
          },
          "version": "1.16.1"
        },
        {
          "package": {
            "name": "static-extend"
          },
          "version": "0.1.2"
        },
        {
          "package": {
            "name": "stealthy-require"
          },
          "version": "1.1.1"
        },
        {
          "package": {
            "name": "string-width"
          },
          "version": "1.0.2"
        },
        {
          "package": {
            "name": "string-width"
          },
          "version": "2.1.1"
        },
        {
          "package": {
            "name": "strip-ansi"
          },
          "version": "3.0.1"
        },
        {
          "package": {
            "name": "strip-ansi"
          },
          "version": "4.0.0"
        },
        {
          "package": {
            "name": "strip-bom"
          },
          "version": "2.0.0"
        },
        {
          "package": {
            "name": "strip-eof"
          },
          "version": "1.0.0"
        },
        {
          "package": {
            "name": "supports-color"
          },
          "version": "2.0.0"
        },
        {
          "package": {
            "name": "supports-color"
          },
          "version": "3.2.3"
        },
        {
          "package": {
            "name": "symbol-tree"
          },
          "version": "3.2.4"
        },
        {
          "package": {
            "name": "test-exclude"
          },
          "version": "4.2.1"
        },
        {
          "package": {
            "name": "to-fast-properties"
          },
          "version": "1.0.3"
        },
        {
          "package": {
            "name": "to-object-path"
          },
          "version": "0.3.0"
        },
        {
          "package": {
            "name": "to-regex"
          },
          "version": "3.0.2"
        },
        {
          "package": {
            "name": "to-regex-range"
          },
          "version": "2.1.1"
        },
        {
          "package": {
            "name": "tough-cookie"
          },
          "version": "2.4.3"
        },
        {
          "package": {
            "name": "tr46"
          },
          "version": "1.0.1"
        },
        {
          "package": {
            "name": "trim-right"
          },
          "version": "1.0.1"
        },
        {
          "package": {
            "name": "tunnel-agent"
          },
          "version": "0.6.0"
        },
        {
          "package": {
            "name": "tweetnacl"
          },
          "version": "0.14.5"
        },
        {
          "package": {
            "name": "type-check"
          },
          "version": "0.3.2"
        },
        {
          "package": {
            "name": "uglify-js"
          },
          "version": "2.8.29"
        },
        {
          "package": {
            "name": "uglify-to-browserify"
          },
          "version": "1.0.2"
        },
        {
          "package": {
            "name": "union-value"
          },
          "version": "1.0.0"
        },
        {
          "package": {
            "name": "unset-value"
          },
          "version": "1.0.0"
        },
        {
          "package": {
            "name": "uri-js"
          },
          "version": "4.2.2"
        },
        {
          "package": {
            "name": "urix"
          },
          "version": "0.1.0"
        },
        {
          "package": {
            "name": "use"
          },
          "version": "3.1.0"
        },
        {
          "package": {
            "name": "uuid"
          },
          "version": "3.3.3"
        },
        {
          "package": {
            "name": "validate-npm-package-license"
          },
          "version": "3.0.3"
        },
        {
          "package": {
            "name": "verror"
          },
          "version": "1.10.0"
        },
        {
          "package": {
            "name": "w3c-hr-time"
          },
          "version": "1.0.1"
        },
        {
          "package": {
            "name": "webidl-conversions"
          },
          "version": "4.0.2"
        },
        {
          "package": {
            "name": "whatwg-encoding"
          },
          "version": "1.0.5"
        },
        {
          "package": {
            "name": "whatwg-mimetype"
          },
          "version": "2.3.0"
        },
        {
          "package": {
            "name": "whatwg-url"
          },
          "version": "6.5.0"
        },
        {
          "package": {
            "name": "whatwg-url"
          },
          "version": "7.1.0"
        },
        {
          "package": {
            "name": "which"
          },
          "version": "1.3.0"
        },
        {
          "package": {
            "name": "which-module"
          },
          "version": "2.0.0"
        },
        {
          "package": {
            "name": "window-size"
          },
          "version": "0.1.0"
        },
        {
          "package": {
            "name": "word-wrap"
          },
          "version": "1.2.3"
        },
        {
          "package": {
            "name": "wordwrap"
          },
          "version": "0.0.2"
        },
        {
          "package": {
            "name": "wordwrap"
          },
          "version": "0.0.3"
        },
        {
          "package": {
            "name": "wrap-ansi"
          },
          "version": "2.1.0"
        },
        {
          "package": {
            "name": "wrappy"
          },
          "version": "1.0.2"
        },
        {
          "package": {
            "name": "write-file-atomic"
          },
          "version": "1.3.4"
        },
        {
          "package": {
            "name": "ws"
          },
          "version": "5.2.2"
        },
        {
          "package": {
            "name": "xml-name-validator"
          },
          "version": "3.0.0"
        },
        {
          "package": {
            "name": "y18n"
          },
          "version": "3.2.1"
        },
        {
          "package": {
            "name": "yallist"
          },
          "version": "2.1.2"
        },
        {
          "package": {
            "name": "yargs"
          },
          "version": "11.1.0"
        },
        {
          "package": {
            "name": "yargs"
          },
          "version": "3.10.0"
        },
        {
          "package": {
            "name": "yargs-parser"
          },
          "version": "8.1.0"
        },
        {
          "package": {
            "name": "yargs-parser"
          },
          "version": "9.0.2"
        }
      ]
    }
  ],
  "scan": {
    "analyzer": {
      "id": "gemnasium",
      "name": "Gemnasium",
      "url": "https://gitlab.com/gitlab-org/security-products/analyzers/gemnasium",
      "vendor": {
        "name": "GitLab"
      },
      "version": "3.15.1"
    },
    "scanner": {
      "id": "gemnasium",
      "name": "Gemnasium",
      "url": "https://gitlab.com/gitlab-org/security-products/analyzers/gemnasium",
      "vendor": {
        "name": "GitLab"
      },
      "version": "3.15.1"
    },
    "type": "dependency_scanning",
    "start_time": "2023-04-27T07:21:20",
    "end_time": "2023-04-27T07:21:28",
    "status": "success"
  }
}
