{
  "bomFormat": "CycloneDX",
  "specVersion": "1.4",
  "serialNumber": "urn:uuid:471f0c57-9382-4aa0-9e0f-4f543ee795a4",
  "version": 1,
  "metadata": {
    "timestamp": "2022-10-14T01:43:03Z",
    "tools": [
      {
        "vendor": "GitLab",
        "name": "sbomgen-golang",
        "version": "3.9.6"
      }
    ],
    "authors": [
      {
        "name": "GitLab",
        "email": "support@gitlab.com"
      }
    ],
    "properties": [
      {
        "name": "gitlab:dependency_scanning:input_file",
        "value": "subdir/go.mod"
      },
      {
        "name": "gitlab:dependency_scanning:input_file:path",
        "value": "subdir/go.mod"
      },
      {
        "name": "gitlab:dependency_scanning:package_manager",
        "value": "go"
      },
      {
        "name": "gitlab:dependency_scanning:package_manager:name",
        "value": "go"
      },
      {
        "name": "gitlab:meta:schema_version",
        "value": "1"
      }
    ]
  },
  "components": [
    {
      "name": "github.com/minio/minio",
      "version": "v0.0.0-20180419184637-5a16671f721f",
      "purl": "pkg:golang/github.com/minio/minio@v0.0.0-20180419184637-5a16671f721f",
      "type": "library",
      "bom-ref": "pkg:golang/github.com/minio/minio@v0.0.0-20180419184637-5a16671f721f"
    },
    {
      "name": "github.com/minio/minio-go",
      "version": "v6.0.14+incompatible",
      "purl": "pkg:golang/github.com/minio/minio-go@v6.0.14+incompatible",
      "type": "library",
      "bom-ref": "pkg:golang/github.com/minio/minio-go@v6.0.14+incompatible"
    },
    {
      "name": "github.com/minio/sha256-simd",
      "version": "v0.1.1",
      "purl": "pkg:golang/github.com/minio/sha256-simd@v0.1.1",
      "type": "library",
      "bom-ref": "pkg:golang/github.com/minio/sha256-simd@v0.1.1"
    },
    {
      "name": "github.com/sirupsen/logrus",
      "version": "v1.4.2",
      "purl": "pkg:golang/github.com/sirupsen/logrus@v1.4.2",
      "type": "library",
      "bom-ref": "pkg:golang/github.com/sirupsen/logrus@v1.4.2"
    },
    {
      "name": "golang.org/x/sys",
      "version": "v0.0.0-20191026070338-33540a1f6037",
      "purl": "pkg:golang/golang.org/x/sys@v0.0.0-20191026070338-33540a1f6037",
      "type": "library",
      "bom-ref": "pkg:golang/golang.org/x/sys@v0.0.0-20191026070338-33540a1f6037"
    }
  ]
}
