[
  {
    "name": "esbuild-linux-arm",
    "version": "0.14.47"
  },
  {
    "name": "for-each",
    "version": "0.3.3"
  },
  {
    "name": "strip-final-newline",
    "version": "3.0.0"
  },
  {
    "name": "@edge-runtime/format",
    "version": "1.1.0"
  },
  {
    "name": "@nodelib/fs.stat",
    "version": "2.0.5"
  },
  {
    "name": "@babel/plugin-syntax-optional-chaining",
    "version": "7.8.3"
  },
  {
    "name": "@babel/plugin-syntax-typescript",
    "version": "7.20.0"
  },
  {
    "name": "cli-spinners",
    "version": "2.7.0"
  },
  {
    "name": "is-number",
    "version": "3.0.0"
  },
  {
    "name": "media-typer",
    "version": "0.3.0"
  },
  {
    "name": "vfile",
    "version": "5.3.6"
  },
  {
    "name": "@babel/plugin-transform-unicode-escapes",
    "version": "7.18.10"
  },
  {
    "name": "character-entities-legacy",
    "version": "3.0.0"
  },
  {
    "name": "core-util-is",
    "version": "1.0.3"
  },
  {
    "name": "unicode-match-property-value-ecmascript",
    "version": "2.1.0"
  },
  {
    "name": "is-deflate",
    "version": "1.0.0"
  },
  {
    "name": "tsconfig",
    "version": "7.0.0"
  },
  {
    "name": "diff",
    "version": "5.1.0"
  },
  {
    "name": "es-shim-unscopables",
    "version": "1.0.0"
  },
  {
    "name": "estree-util-visit",
    "version": "1.2.0"
  },
  {
    "name": "ignore",
    "version": "5.2.4"
  },
  {
    "name": "is-generator-function",
    "version": "1.0.10"
  },
  {
    "name": "semver",
    "version": "7.3.8"
  },
  {
    "name": "@types/react",
    "version": "18.0.26"
  },
  {
    "name": "@vercel/node",
    "version": "2.8.2"
  },
  {
    "name": "inflight",
    "version": "1.0.6"
  },
  {
    "name": "tsconfig-paths",
    "version": "3.14.1"
  },
  {
    "name": "@babel/plugin-syntax-jsx",
    "version": "7.18.6"
  },
  {
    "name": "eslint-plugin-import",
    "version": "2.26.0"
  },
  {
    "name": "ms",
    "version": "2.0.0"
  },
  {
    "name": "@babel/plugin-syntax-json-strings",
    "version": "7.8.3"
  },
  {
    "name": "mdast-util-to-markdown",
    "version": "1.4.0"
  },
  {
    "name": "merge2",
    "version": "1.4.1"
  },
  {
    "name": "@babel/plugin-transform-function-name",
    "version": "7.18.9"
  },
  {
    "name": "esbuild-darwin-64",
    "version": "0.14.47"
  },
  {
    "name": "get-stream",
    "version": "5.2.0"
  },
  {
    "name": "mdast-util-definitions",
    "version": "5.1.1"
  },
  {
    "name": "@babel/helper-module-transforms",
    "version": "7.20.11"
  },
  {
    "name": "cacache",
    "version": "15.3.0"
  },
  {
    "name": "pac-proxy-agent",
    "version": "5.0.0"
  },
  {
    "name": "bail",
    "version": "2.0.2"
  },
  {
    "name": "object.pick",
    "version": "1.3.0"
  },
  {
    "name": "p-map",
    "version": "4.0.0"
  },
  {
    "name": "rimraf",
    "version": "3.0.2"
  },
  {
    "name": "@babel/highlight",
    "version": "7.18.6"
  },
  {
    "name": "@types/cacheable-request",
    "version": "6.0.3"
  },
  {
    "name": "picocolors",
    "version": "1.0.0"
  },
  {
    "name": "util",
    "version": "0.12.5"
  },
  {
    "name": "@babel/helper-builder-binary-assignment-operator-visitor",
    "version": "7.18.9"
  },
  {
    "name": "esbuild-windows-32",
    "version": "0.14.47"
  },
  {
    "name": "core-js-pure",
    "version": "3.26.1"
  },
  {
    "name": "eslint-plugin-turbo",
    "version": "0.0.7"
  },
  {
    "name": "node-fetch",
    "version": "2.6.7"
  },
  {
    "name": "@babel/helper-hoist-variables",
    "version": "7.18.6"
  },
  {
    "name": "assign-symbols",
    "version": "1.0.0"
  },
  {
    "name": "http-cache-semantics",
    "version": "4.1.0"
  },
  {
    "name": "micromark-factory-space",
    "version": "1.0.0"
  },
  {
    "name": "supports-color",
    "version": "7.2.0"
  },
  {
    "name": "@types/http-cache-semantics",
    "version": "4.0.1"
  },
  {
    "name": "has-values",
    "version": "1.0.0"
  },
  {
    "name": "core-js-compat",
    "version": "3.26.1"
  },
  {
    "name": "@babel/plugin-transform-new-target",
    "version": "7.18.6"
  },
  {
    "name": "code-block-writer",
    "version": "10.1.1"
  },
  {
    "name": "graceful-fs",
    "version": "4.2.10"
  },
  {
    "name": "hast-util-to-estree",
    "version": "2.1.0"
  },
  {
    "name": "is-regex",
    "version": "1.1.4"
  },
  {
    "name": "micromark-factory-mdx-expression",
    "version": "1.0.6"
  },
  {
    "name": "property-information",
    "version": "6.2.0"
  },
  {
    "name": "regjsgen",
    "version": "0.7.1"
  },
  {
    "name": "@types/responselike",
    "version": "1.0.0"
  },
  {
    "name": "event-target-shim",
    "version": "5.0.1"
  },
  {
    "name": "braces",
    "version": "2.3.2"
  },
  {
    "name": "deep-is",
    "version": "0.1.4"
  },
  {
    "name": "esbuild",
    "version": "0.16.3"
  },
  {
    "name": "mimic-fn",
    "version": "2.1.0"
  },
  {
    "name": "@npmcli/move-file",
    "version": "1.1.2"
  },
  {
    "name": "csstype",
    "version": "3.1.1"
  },
  {
    "name": "micromatch",
    "version": "3.1.10"
  },
  {
    "name": "fill-range",
    "version": "7.0.1"
  },
  {
    "name": "is-buffer",
    "version": "2.0.5"
  },
  {
    "name": "micromark-util-normalize-identifier",
    "version": "1.0.0"
  },
  {
    "name": "@babel/helper-optimise-call-expression",
    "version": "7.18.6"
  },
  {
    "name": "@esbuild/sunos-x64",
    "version": "0.16.3"
  },
  {
    "name": "@remix-run/web-blob",
    "version": "3.0.4"
  },
  {
    "name": "micromark-util-chunked",
    "version": "1.0.0"
  },
  {
    "name": "bytes",
    "version": "3.0.0"
  },
  {
    "name": "markdown-extensions",
    "version": "1.1.1"
  },
  {
    "name": "@rollup/pluginutils",
    "version": "4.2.1"
  },
  {
    "name": "extend",
    "version": "3.0.2"
  },
  {
    "name": "repeat-element",
    "version": "1.1.4"
  },
  {
    "name": "@babel/plugin-syntax-flow",
    "version": "7.18.6"
  },
  {
    "name": "@babel/plugin-syntax-logical-assignment-operators",
    "version": "7.10.4"
  },
  {
    "name": "emojis-list",
    "version": "3.0.0"
  },
  {
    "name": "has-flag",
    "version": "3.0.0"
  },
  {
    "name": "loader-utils",
    "version": "2.0.4"
  },
  {
    "name": "@babel/plugin-transform-for-of",
    "version": "7.18.8"
  },
  {
    "name": "@remix-run/router",
    "version": "1.1.0"
  },
  {
    "name": "express",
    "version": "4.18.2"
  },
  {
    "name": "source-map",
    "version": "0.6.1"
  },
  {
    "name": "fill-range",
    "version": "4.0.0"
  },
  {
    "name": "string.prototype.trimstart",
    "version": "1.0.6"
  },
  {
    "name": "style-to-object",
    "version": "0.3.0"
  },
  {
    "name": "@babel/helper-skip-transparent-expression-wrappers",
    "version": "7.20.0"
  },
  {
    "name": "@babel/plugin-transform-modules-commonjs",
    "version": "7.20.11"
  },
  {
    "name": "prelude-ls",
    "version": "1.1.2"
  },
  {
    "name": "unique-slug",
    "version": "2.0.2"
  },
  {
    "name": "debug",
    "version": "4.3.4"
  },
  {
    "name": "@babel/runtime-corejs3",
    "version": "7.20.7"
  },
  {
    "name": "@esbuild/android-x64",
    "version": "0.16.3"
  },
  {
    "name": "remark-rehype",
    "version": "9.1.0"
  },
  {
    "name": "js-tokens",
    "version": "4.0.0"
  },
  {
    "name": "stringify-entities",
    "version": "4.0.3"
  },
  {
    "name": "@babel/plugin-syntax-dynamic-import",
    "version": "7.8.3"
  },
  {
    "name": "edge-runtime",
    "version": "2.0.0"
  },
  {
    "name": "magic-string",
    "version": "0.25.9"
  },
  {
    "name": "decompress-response",
    "version": "6.0.0"
  },
  {
    "name": "esbuild",
    "version": "0.14.47"
  },
  {
    "name": "mdast-util-mdx",
    "version": "1.1.0"
  },
  {
    "name": "object.fromentries",
    "version": "2.0.6"
  },
  {
    "name": "peek-stream",
    "version": "1.1.3"
  },
  {
    "name": "@babel/helpers",
    "version": "7.20.7"
  },
  {
    "name": "@sindresorhus/is",
    "version": "4.6.0"
  },
  {
    "name": "json5",
    "version": "1.0.1"
  },
  {
    "name": "pify",
    "version": "4.0.1"
  },
  {
    "name": "qs",
    "version": "6.11.0"
  },
  {
    "name": "@esbuild/win32-arm64",
    "version": "0.16.3"
  },
  {
    "name": "@types/estree",
    "version": "1.0.0"
  },
  {
    "name": "p-cancelable",
    "version": "2.1.1"
  },
  {
    "name": "side-channel",
    "version": "1.0.4"
  },
  {
    "name": "@typescript-eslint/parser",
    "version": "5.47.0"
  },
  {
    "name": "git-hooks-list",
    "version": "1.0.3"
  },
  {
    "name": "@babel/plugin-transform-typescript",
    "version": "7.20.7"
  },
  {
    "name": "escape-string-regexp",
    "version": "4.0.0"
  },
  {
    "name": "safe-regex-test",
    "version": "1.0.0"
  },
  {
    "name": "@babel/plugin-transform-member-expression-literals",
    "version": "7.18.6"
  },
  {
    "name": "@babel/plugin-transform-typeof-symbol",
    "version": "7.18.9"
  },
  {
    "name": "emoji-regex",
    "version": "9.2.2"
  },
  {
    "name": "isobject",
    "version": "2.1.0"
  },
  {
    "name": "convert-hrtime",
    "version": "3.0.0"
  },
  {
    "name": "debug",
    "version": "3.2.7"
  },
  {
    "name": "jsx-ast-utils",
    "version": "3.3.3"
  },
  {
    "name": "rollup-plugin-node-polyfills",
    "version": "0.2.1"
  },
  {
    "name": "to-object-path",
    "version": "0.3.0"
  },
  {
    "name": "fsevents",
    "version": "2.3.2"
  },
  {
    "name": "json5",
    "version": "2.2.2"
  },
  {
    "name": "esbuild-freebsd-arm64",
    "version": "0.14.47"
  },
  {
    "name": "object.hasown",
    "version": "1.1.2"
  },
  {
    "name": "unist-util-visit-parents",
    "version": "5.1.1"
  },
  {
    "name": "@babel/core",
    "version": "7.20.7"
  },
  {
    "name": "abort-controller",
    "version": "3.0.0"
  },
  {
    "name": "@remix-run/serve",
    "version": "1.9.0"
  },
  {
    "name": "finalhandler",
    "version": "1.2.0"
  },
  {
    "name": "for-in",
    "version": "1.0.2"
  },
  {
    "name": "tar",
    "version": "6.1.13"
  },
  {
    "name": "micromark-util-events-to-acorn",
    "version": "1.2.0"
  },
  {
    "name": "vm2",
    "version": "3.9.13"
  },
  {
    "name": "brace-expansion",
    "version": "1.1.11"
  },
  {
    "name": "eslint-plugin-react",
    "version": "7.28.0"
  },
  {
    "name": "is-negative-zero",
    "version": "2.0.2"
  },
  {
    "name": "mimic-response",
    "version": "1.0.1"
  },
  {
    "name": "micromark-extension-mdxjs",
    "version": "1.0.0"
  },
  {
    "name": "parse-ms",
    "version": "2.1.0"
  },
  {
    "name": "@babel/plugin-proposal-export-namespace-from",
    "version": "7.18.9"
  },
  {
    "name": "@edge-runtime/primitives",
    "version": "2.0.0"
  },
  {
    "name": "fs.realpath",
    "version": "1.0.0"
  },
  {
    "name": "mime",
    "version": "1.6.0"
  },
  {
    "name": "object-copy",
    "version": "0.1.0"
  },
  {
    "name": "pascalcase",
    "version": "0.1.1"
  },
  {
    "name": "prop-types",
    "version": "15.8.1"
  },
  {
    "name": "safe-buffer",
    "version": "5.1.2"
  },
  {
    "name": "@babel/helper-simple-access",
    "version": "7.20.2"
  },
  {
    "name": "@babel/plugin-syntax-private-property-in-object",
    "version": "7.14.5"
  },
  {
    "name": "kind-of",
    "version": "6.0.3"
  },
  {
    "name": "micromark-extension-mdxjs-esm",
    "version": "1.0.3"
  },
  {
    "name": "path-is-absolute",
    "version": "1.0.1"
  },
  {
    "name": "get-stream",
    "version": "6.0.1"
  },
  {
    "name": "http-errors",
    "version": "2.0.0"
  },
  {
    "name": "arg",
    "version": "5.0.2"
  },
  {
    "name": "body-parser",
    "version": "1.20.1"
  },
  {
    "name": "component-emitter",
    "version": "1.3.0"
  },
  {
    "name": "ret",
    "version": "0.1.15"
  },
  {
    "name": "@babel/plugin-transform-sticky-regex",
    "version": "7.18.6"
  },
  {
    "name": "@esbuild/android-arm",
    "version": "0.16.3"
  },
  {
    "name": "eslint-config-turbo",
    "version": "0.0.7"
  },
  {
    "name": "string.prototype.matchall",
    "version": "4.0.8"
  },
  {
    "name": "@esbuild/linux-x64",
    "version": "0.16.3"
  },
  {
    "name": "is-boolean-object",
    "version": "1.1.2"
  },
  {
    "name": "mute-stream",
    "version": "0.0.8"
  },
  {
    "name": "@babel/plugin-transform-modules-amd",
    "version": "7.20.11"
  },
  {
    "name": "@babel/plugin-transform-modules-systemjs",
    "version": "7.20.11"
  },
  {
    "name": "color-name",
    "version": "1.1.3"
  },
  {
    "name": "esbuild-windows-64",
    "version": "0.14.47"
  },
  {
    "name": "ftp",
    "version": "0.3.10"
  },
  {
    "name": "has-tostringtag",
    "version": "1.0.0"
  },
  {
    "name": "@babel/plugin-transform-literals",
    "version": "7.18.9"
  },
  {
    "name": "@types/json-schema",
    "version": "7.0.11"
  },
  {
    "name": "language-tags",
    "version": "1.0.7"
  },
  {
    "name": "responselike",
    "version": "2.0.1"
  },
  {
    "name": "time-span",
    "version": "4.0.0"
  },
  {
    "name": "@babel/helper-environment-visitor",
    "version": "7.18.9"
  },
  {
    "name": "@babel/plugin-transform-named-capturing-groups-regex",
    "version": "7.20.5"
  },
  {
    "name": "@babel/helper-create-class-features-plugin",
    "version": "7.20.7"
  },
  {
    "name": "jsonfile",
    "version": "4.0.0"
  },
  {
    "name": "mri",
    "version": "1.2.0"
  },
  {
    "name": "define-property",
    "version": "1.0.0"
  },
  {
    "name": "is-decimal",
    "version": "2.0.1"
  },
  {
    "name": "estree-util-build-jsx",
    "version": "2.2.0"
  },
  {
    "name": "micromark-factory-destination",
    "version": "1.0.0"
  },
  {
    "name": "npm-run-path",
    "version": "5.1.0"
  },
  {
    "name": "@babel/runtime",
    "version": "7.20.7"
  },
  {
    "name": "bindings",
    "version": "1.5.0"
  },
  {
    "name": "@esbuild/darwin-arm64",
    "version": "0.16.3"
  },
  {
    "name": "mkdirp",
    "version": "1.0.4"
  },
  {
    "name": "rollup-plugin-inject",
    "version": "3.0.2"
  },
  {
    "name": "@remix-run/web-fetch",
    "version": "4.3.2"
  },
  {
    "name": "eslint-plugin-react",
    "version": "7.31.11"
  },
  {
    "name": "is-alphanumerical",
    "version": "2.0.1"
  },
  {
    "name": "statuses",
    "version": "2.0.1"
  },
  {
    "name": "@babel/plugin-bugfix-safari-id-destructuring-collision-in-function-expression",
    "version": "7.18.6"
  },
  {
    "name": "esbuild-linux-s390x",
    "version": "0.14.47"
  },
  {
    "name": "call-bind",
    "version": "1.0.2"
  },
  {
    "name": "clone",
    "version": "1.0.4"
  },
  {
    "name": "depd",
    "version": "2.0.0"
  },
  {
    "name": "make-error",
    "version": "1.3.6"
  },
  {
    "name": "@babel/plugin-transform-duplicate-keys",
    "version": "7.18.9"
  },
  {
    "name": "@jridgewell/gen-mapping",
    "version": "0.1.1"
  },
  {
    "name": "mdurl",
    "version": "1.0.1"
  },
  {
    "name": "vary",
    "version": "1.1.2"
  },
  {
    "name": "clone-response",
    "version": "1.0.3"
  },
  {
    "name": "is-date-object",
    "version": "1.0.5"
  },
  {
    "name": "copy-descriptor",
    "version": "0.1.1"
  },
  {
    "name": "raw-body",
    "version": "2.5.1"
  },
  {
    "name": "is-binary-path",
    "version": "2.1.0"
  },
  {
    "name": "function-bind",
    "version": "1.1.1"
  },
  {
    "name": "has-flag",
    "version": "4.0.0"
  },
  {
    "name": "minipass",
    "version": "3.3.6"
  },
  {
    "name": "rimraf",
    "version": "2.6.3"
  },
  {
    "name": "slash",
    "version": "3.0.0"
  },
  {
    "name": "xtend",
    "version": "4.0.2"
  },
  {
    "name": "@babel/plugin-proposal-unicode-property-regex",
    "version": "7.18.6"
  },
  {
    "name": "extend-shallow",
    "version": "3.0.2"
  },
  {
    "name": "@types/strip-bom",
    "version": "3.0.0"
  },
  {
    "name": "remark-frontmatter",
    "version": "4.0.1"
  },
  {
    "name": "@babel/helper-explode-assignable-expression",
    "version": "7.18.6"
  },
  {
    "name": "acorn-jsx",
    "version": "5.3.2"
  },
  {
    "name": "@babel/plugin-transform-shorthand-properties",
    "version": "7.18.6"
  },
  {
    "name": "resolve-url",
    "version": "0.2.1"
  },
  {
    "name": "is-data-descriptor",
    "version": "0.1.4"
  },
  {
    "name": "safe-regex",
    "version": "1.1.0"
  },
  {
    "name": "cacheable-request",
    "version": "7.0.2"
  },
  {
    "name": "eslint-module-utils",
    "version": "2.7.4"
  },
  {
    "name": "is-descriptor",
    "version": "1.0.2"
  },
  {
    "name": "escape-string-regexp",
    "version": "1.0.5"
  },
  {
    "name": "inherits",
    "version": "2.0.4"
  },
  {
    "name": "chownr",
    "version": "2.0.0"
  },
  {
    "name": "is-bigint",
    "version": "1.0.4"
  },
  {
    "name": "unicode-property-aliases-ecmascript",
    "version": "2.1.0"
  },
  {
    "name": "unist-util-generated",
    "version": "2.0.0"
  },
  {
    "name": "@babel/generator",
    "version": "7.20.7"
  },
  {
    "name": "@babel/preset-modules",
    "version": "0.1.5"
  },
  {
    "name": "type-is",
    "version": "1.6.18"
  },
  {
    "name": "forwarded",
    "version": "0.2.0"
  },
  {
    "name": "mkdirp-classic",
    "version": "0.5.3"
  },
  {
    "name": "ast-types",
    "version": "0.13.4"
  },
  {
    "name": "ee-first",
    "version": "1.1.1"
  },
  {
    "name": "parse-entities",
    "version": "4.0.0"
  },
  {
    "name": "@babel/plugin-syntax-async-generators",
    "version": "7.8.4"
  },
  {
    "name": "keyv",
    "version": "4.5.2"
  },
  {
    "name": "sade",
    "version": "1.8.1"
  },
  {
    "name": "use",
    "version": "3.1.1"
  },
  {
    "name": "@headlessui/react",
    "version": "1.7.7"
  },
  {
    "name": "babel-core",
    "version": "7.0.0-bridge.0"
  },
  {
    "name": "@babel/plugin-proposal-class-static-block",
    "version": "7.20.7"
  },
  {
    "name": "estraverse",
    "version": "5.3.0"
  },
  {
    "name": "semver",
    "version": "6.3.0"
  },
  {
    "name": "string_decoder",
    "version": "1.1.1"
  },
  {
    "name": "fs-extra",
    "version": "8.1.0"
  },
  {
    "name": "https-proxy-agent",
    "version": "5.0.1"
  },
  {
    "name": "object-keys",
    "version": "1.1.1"
  },
  {
    "name": "yn",
    "version": "3.1.1"
  },
  {
    "name": "@babel/plugin-syntax-optional-catch-binding",
    "version": "7.8.3"
  },
  {
    "name": "micromark-util-classify-character",
    "version": "1.0.0"
  },
  {
    "name": "escalade",
    "version": "3.1.1"
  },
  {
    "name": "glob",
    "version": "7.2.3"
  },
  {
    "name": "got",
    "version": "11.8.6"
  },
  {
    "name": "iconv-lite",
    "version": "0.4.24"
  },
  {
    "name": "@babel/plugin-transform-modules-umd",
    "version": "7.18.6"
  },
  {
    "name": "@esbuild/openbsd-x64",
    "version": "0.16.3"
  },
  {
    "name": "picomatch",
    "version": "2.3.1"
  },
  {
    "name": "proxy-from-env",
    "version": "1.1.0"
  },
  {
    "name": "trough",
    "version": "2.1.0"
  },
  {
    "name": "eslint-config-next",
    "version": "12.3.4"
  },
  {
    "name": "fastq",
    "version": "1.14.0"
  },
  {
    "name": "eslint-import-resolver-node",
    "version": "0.3.6"
  },
  {
    "name": "strip-final-newline",
    "version": "2.0.0"
  },
  {
    "name": "@babel/plugin-syntax-class-static-block",
    "version": "7.14.5"
  },
  {
    "name": "@vercel/build-utils",
    "version": "5.7.2"
  },
  {
    "name": "@babel/code-frame",
    "version": "7.18.6"
  },
  {
    "name": "@esbuild-plugins/node-modules-polyfill",
    "version": "0.1.4"
  },
  {
    "name": "lowercase-keys",
    "version": "2.0.0"
  },
  {
    "name": "socks-proxy-agent",
    "version": "5.0.1"
  },
  {
    "name": "@babel/plugin-proposal-nullish-coalescing-operator",
    "version": "7.18.6"
  },
  {
    "name": "@esbuild/android-arm64",
    "version": "0.16.3"
  },
  {
    "name": "estree-walker",
    "version": "3.0.1"
  },
  {
    "name": "http2-wrapper",
    "version": "1.0.3"
  },
  {
    "name": "setprototypeof",
    "version": "1.2.0"
  },
  {
    "name": "@babel/plugin-syntax-nullish-coalescing-operator",
    "version": "7.8.3"
  },
  {
    "name": "estree-util-is-identifier-name",
    "version": "1.1.0"
  },
  {
    "name": "safe-buffer",
    "version": "5.2.1"
  },
  {
    "name": "unbox-primitive",
    "version": "1.0.2"
  },
  {
    "name": "@tootallnate/once",
    "version": "1.1.2"
  },
  {
    "name": "duplexify",
    "version": "3.7.1"
  },
  {
    "name": "rxjs",
    "version": "7.8.0"
  },
  {
    "name": "aria-query",
    "version": "4.2.2"
  },
  {
    "name": "dir-glob",
    "version": "3.0.1"
  },
  {
    "name": "@babel/plugin-proposal-private-methods",
    "version": "7.18.6"
  },
  {
    "name": "source-map",
    "version": "0.7.4"
  },
  {
    "name": "@babel/parser",
    "version": "7.20.7"
  },
  {
    "name": "lodash.debounce",
    "version": "4.0.8"
  },
  {
    "name": "remark-mdx-frontmatter",
    "version": "1.1.1"
  },
  {
    "name": "supports-color",
    "version": "5.5.0"
  },
  {
    "name": "@types/react-dom",
    "version": "17.0.18"
  },
  {
    "name": "acorn-walk",
    "version": "8.2.0"
  },
  {
    "name": "esbuild-linux-32",
    "version": "0.14.47"
  },
  {
    "name": "shebang-command",
    "version": "2.0.0"
  },
  {
    "name": "base64-js",
    "version": "1.5.1"
  },
  {
    "name": "concat-map",
    "version": "0.0.1"
  },
  {
    "name": "internal-slot",
    "version": "1.0.4"
  },
  {
    "name": "path-exists",
    "version": "3.0.0"
  },
  {
    "name": "is-extendable",
    "version": "1.0.1"
  },
  {
    "name": "tsutils",
    "version": "3.21.0"
  },
  {
    "name": "character-reference-invalid",
    "version": "2.0.1"
  },
  {
    "name": "fragment-cache",
    "version": "0.2.1"
  },
  {
    "name": "is-accessor-descriptor",
    "version": "0.1.6"
  },
  {
    "name": "normalize-url",
    "version": "6.1.0"
  },
  {
    "name": "proxy-addr",
    "version": "2.0.7"
  },
  {
    "name": "wrappy",
    "version": "1.0.2"
  },
  {
    "name": "@babel/plugin-transform-reserved-words",
    "version": "7.18.6"
  },
  {
    "name": "esbuild-darwin-arm64",
    "version": "0.14.47"
  },
  {
    "name": "shebang-regex",
    "version": "3.0.0"
  },
  {
    "name": "string_decoder",
    "version": "1.3.0"
  },
  {
    "name": "cli-width",
    "version": "3.0.0"
  },
  {
    "name": "http-status",
    "version": "1.5.3"
  },
  {
    "name": "estree-util-attach-comments",
    "version": "2.1.0"
  },
  {
    "name": "@types/debug",
    "version": "4.1.7"
  },
  {
    "name": "array-flatten",
    "version": "1.1.1"
  },
  {
    "name": "gensync",
    "version": "1.0.0-beta.2"
  },
  {
    "name": "micromark-factory-label",
    "version": "1.0.2"
  },
  {
    "name": "string_decoder",
    "version": "0.10.31"
  },
  {
    "name": "unist-util-stringify-position",
    "version": "3.0.2"
  },
  {
    "name": "@jridgewell/trace-mapping",
    "version": "0.3.17"
  },
  {
    "name": "color-convert",
    "version": "1.9.3"
  },
  {
    "name": "remark-parse",
    "version": "10.0.1"
  },
  {
    "name": "big.js",
    "version": "5.2.2"
  },
  {
    "name": "micromark-util-html-tag-name",
    "version": "1.1.0"
  },
  {
    "name": "array.prototype.flatmap",
    "version": "1.3.1"
  },
  {
    "name": "infer-owner",
    "version": "1.0.4"
  },
  {
    "name": "minipass-pipeline",
    "version": "1.2.4"
  },
  {
    "name": "snapdragon-node",
    "version": "2.1.1"
  },
  {
    "name": "@babel/plugin-transform-regenerator",
    "version": "7.20.5"
  },
  {
    "name": "@remix-run/web-file",
    "version": "3.0.2"
  },
  {
    "name": "on-finished",
    "version": "2.4.1"
  },
  {
    "name": "which",
    "version": "2.0.2"
  },
  {
    "name": "@types/minimatch",
    "version": "5.1.2"
  },
  {
    "name": "is-fullwidth-code-point",
    "version": "3.0.0"
  },
  {
    "name": "isarray",
    "version": "1.0.0"
  },
  {
    "name": "mdast-util-mdx-expression",
    "version": "1.3.1"
  },
  {
    "name": "minipass-flush",
    "version": "1.0.5"
  },
  {
    "name": "nanomatch",
    "version": "1.2.13"
  },
  {
    "name": "@babel/template",
    "version": "7.20.7"
  },
  {
    "name": "@jridgewell/set-array",
    "version": "1.1.2"
  },
  {
    "name": "estree-util-is-identifier-name",
    "version": "2.0.1"
  },
  {
    "name": "node-dir",
    "version": "0.1.17"
  },
  {
    "name": "p-limit",
    "version": "2.3.0"
  },
  {
    "name": "tar-stream",
    "version": "2.2.0"
  },
  {
    "name": "esbuild-linux-arm64",
    "version": "0.14.47"
  },
  {
    "name": "is-plain-obj",
    "version": "2.1.0"
  },
  {
    "name": "unicode-canonical-property-names-ecmascript",
    "version": "2.0.0"
  },
  {
    "name": "@babel/helper-string-parser",
    "version": "7.19.4"
  },
  {
    "name": "define-properties",
    "version": "1.1.4"
  },
  {
    "name": "is-symbol",
    "version": "1.0.4"
  },
  {
    "name": "@remix-run/dev",
    "version": "1.9.0"
  },
  {
    "name": "cross-spawn",
    "version": "7.0.3"
  },
  {
    "name": "regexpu-core",
    "version": "5.2.2"
  },
  {
    "name": "space-separated-tokens",
    "version": "2.0.2"
  },
  {
    "name": "ieee754",
    "version": "1.2.1"
  },
  {
    "name": "reusify",
    "version": "1.0.4"
  },
  {
    "name": "update-browserslist-db",
    "version": "1.0.10"
  },
  {
    "name": "@babel/plugin-transform-flow-strip-types",
    "version": "7.19.0"
  },
  {
    "name": "accepts",
    "version": "1.3.8"
  },
  {
    "name": "temp",
    "version": "0.8.4"
  },
  {
    "name": "ts-node",
    "version": "8.9.1"
  },
  {
    "name": "tslib",
    "version": "1.14.1"
  },
  {
    "name": "@ts-morph/common",
    "version": "0.11.1"
  },
  {
    "name": "escape-html",
    "version": "1.0.3"
  },
  {
    "name": "@types/scheduler",
    "version": "0.16.2"
  },
  {
    "name": "decode-uri-component",
    "version": "0.2.2"
  },
  {
    "name": "esbuild-linux-riscv64",
    "version": "0.14.47"
  },
  {
    "name": "external-editor",
    "version": "3.1.0"
  },
  {
    "name": "sort-package-json",
    "version": "1.57.0"
  },
  {
    "name": "@babel/helper-replace-supers",
    "version": "7.20.7"
  },
  {
    "name": "@babel/preset-flow",
    "version": "7.18.6"
  },
  {
    "name": "is-windows",
    "version": "1.0.2"
  },
  {
    "name": "micromark-extension-frontmatter",
    "version": "1.0.0"
  },
  {
    "name": "path-browserify",
    "version": "1.0.1"
  },
  {
    "name": "supports-preserve-symlinks-flag",
    "version": "1.0.0"
  },
  {
    "name": "chardet",
    "version": "0.7.0"
  },
  {
    "name": "is-extendable",
    "version": "0.1.1"
  },
  {
    "name": "is-hexadecimal",
    "version": "2.0.1"
  },
  {
    "name": "kind-of",
    "version": "5.1.0"
  },
  {
    "name": "language-subtag-registry",
    "version": "0.3.22"
  },
  {
    "name": "@babel/plugin-transform-property-literals",
    "version": "7.18.6"
  },
  {
    "name": "@types/acorn",
    "version": "4.0.6"
  },
  {
    "name": "micromark",
    "version": "3.1.0"
  },
  {
    "name": "micromark-util-symbol",
    "version": "1.0.1"
  },
  {
    "name": "object.assign",
    "version": "4.1.4"
  },
  {
    "name": "readable-stream",
    "version": "1.1.14"
  },
  {
    "name": "is-alphabetical",
    "version": "2.0.1"
  },
  {
    "name": "micromark-extension-mdx-jsx",
    "version": "1.0.3"
  },
  {
    "name": "has-property-descriptors",
    "version": "1.0.0"
  },
  {
    "name": "@babel/helper-remap-async-to-generator",
    "version": "7.18.9"
  },
  {
    "name": "decode-named-character-reference",
    "version": "1.0.2"
  },
  {
    "name": "split-string",
    "version": "3.1.0"
  },
  {
    "name": "@types/mdast",
    "version": "3.0.10"
  },
  {
    "name": "mimic-fn",
    "version": "4.0.0"
  },
  {
    "name": "eslint-config-prettier",
    "version": "8.5.0"
  },
  {
    "name": "extend-shallow",
    "version": "2.0.1"
  },
  {
    "name": "mdast-util-from-markdown",
    "version": "1.2.0"
  },
  {
    "name": "unist-util-visit",
    "version": "4.1.1"
  },
  {
    "name": "client-only",
    "version": "0.0.1"
  },
  {
    "name": "damerau-levenshtein",
    "version": "1.0.8"
  },
  {
    "name": "stream-shift",
    "version": "1.0.1"
  },
  {
    "name": "color-name",
    "version": "1.1.4"
  },
  {
    "name": "micromark-factory-whitespace",
    "version": "1.0.0"
  },
  {
    "name": "is-shared-array-buffer",
    "version": "1.0.2"
  },
  {
    "name": "mrmime",
    "version": "1.0.1"
  },
  {
    "name": "ora",
    "version": "5.4.1"
  },
  {
    "name": "buffer",
    "version": "5.7.1"
  },
  {
    "name": "cli-cursor",
    "version": "3.1.0"
  },
  {
    "name": "chokidar",
    "version": "3.5.3"
  },
  {
    "name": "ip",
    "version": "1.1.8"
  },
  {
    "name": "micromark-extension-mdx-expression",
    "version": "1.0.3"
  },
  {
    "name": "safer-buffer",
    "version": "2.1.2"
  },
  {
    "name": "semver",
    "version": "5.7.1"
  },
  {
    "name": "typescript",
    "version": "4.9.4"
  },
  {
    "name": "content-disposition",
    "version": "0.5.4"
  },
  {
    "name": "mdast-util-to-hast",
    "version": "11.3.0"
  },
  {
    "name": "is-unicode-supported",
    "version": "0.1.0"
  },
  {
    "name": "@babel/helper-function-name",
    "version": "7.19.0"
  },
  {
    "name": "basic-auth",
    "version": "2.0.1"
  },
  {
    "name": "caniuse-lite",
    "version": "1.0.30001441"
  },
  {
    "name": "path-type",
    "version": "4.0.0"
  },
  {
    "name": "prettier",
    "version": "2.7.1"
  },
  {
    "name": "readable-stream",
    "version": "3.6.0"
  },
  {
    "name": "stream-slice",
    "version": "0.1.2"
  },
  {
    "name": "@esbuild/freebsd-arm64",
    "version": "0.16.3"
  },
  {
    "name": "@remix-run/react",
    "version": "1.9.0"
  },
  {
    "name": "methods",
    "version": "1.1.2"
  },
  {
    "name": "static-extend",
    "version": "0.1.2"
  },
  {
    "name": "@types/react",
    "version": "17.0.52"
  },
  {
    "name": "binary-extensions",
    "version": "2.2.0"
  },
  {
    "name": "mdast-util-to-string",
    "version": "3.1.0"
  },
  {
    "name": "negotiator",
    "version": "0.6.3"
  },
  {
    "name": "axobject-query",
    "version": "2.2.0"
  },
  {
    "name": "json-schema-to-ts",
    "version": "1.6.4"
  },
  {
    "name": "expand-brackets",
    "version": "2.1.4"
  },
  {
    "name": "source-map",
    "version": "0.5.7"
  },
  {
    "name": "@esbuild/linux-arm",
    "version": "0.16.3"
  },
  {
    "name": "array-union",
    "version": "2.1.0"
  },
  {
    "name": "deasync",
    "version": "0.1.28"
  },
  {
    "name": "through2",
    "version": "2.0.5"
  },
  {
    "name": "source-map-url",
    "version": "0.4.1"
  },
  {
    "name": "fast-levenshtein",
    "version": "2.0.6"
  },
  {
    "name": "@types/json5",
    "version": "0.0.29"
  },
  {
    "name": "@babel/plugin-transform-arrow-functions",
    "version": "7.20.7"
  },
  {
    "name": "@szmarczak/http-timer",
    "version": "4.0.6"
  },
  {
    "name": "micromark-util-character",
    "version": "1.1.0"
  },
  {
    "name": "pirates",
    "version": "4.0.5"
  },
  {
    "name": "arr-union",
    "version": "3.1.0"
  },
  {
    "name": "chalk",
    "version": "4.1.2"
  },
  {
    "name": "react-is",
    "version": "16.13.1"
  },
  {
    "name": "lru-cache",
    "version": "6.0.0"
  },
  {
    "name": "neo-async",
    "version": "2.6.2"
  },
  {
    "name": "is-stream",
    "version": "3.0.0"
  },
  {
    "name": "sourcemap-codec",
    "version": "1.4.8"
  },
  {
    "name": "@babel/plugin-transform-template-literals",
    "version": "7.18.9"
  },
  {
    "name": "jscodeshift",
    "version": "0.13.1"
  },
  {
    "name": "data-uri-to-buffer",
    "version": "3.0.1"
  },
  {
    "name": "define-property",
    "version": "2.0.2"
  },
  {
    "name": "ms",
    "version": "2.1.3"
  },
  {
    "name": "@rushstack/eslint-patch",
    "version": "1.2.0"
  },
  {
    "name": "ansi-styles",
    "version": "4.3.0"
  },
  {
    "name": "esutils",
    "version": "2.0.3"
  },
  {
    "name": "strip-json-comments",
    "version": "2.0.1"
  },
  {
    "name": "@babel/helper-compilation-targets",
    "version": "7.20.7"
  },
  {
    "name": "yallist",
    "version": "3.1.1"
  },
  {
    "name": "minipass",
    "version": "4.0.0"
  },
  {
    "name": "dotenv",
    "version": "16.0.3"
  },
  {
    "name": "exit-hook",
    "version": "2.2.1"
  },
  {
    "name": "is-arguments",
    "version": "1.1.1"
  },
  {
    "name": "@nodelib/fs.walk",
    "version": "1.2.8"
  },
  {
    "name": "arr-flatten",
    "version": "1.1.0"
  },
  {
    "name": "pac-resolver",
    "version": "5.0.1"
  },
  {
    "name": "compressible",
    "version": "2.0.18"
  },
  {
    "name": "jsesc",
    "version": "0.5.0"
  },
  {
    "name": "mime-types",
    "version": "2.1.35"
  },
  {
    "name": "serve-static",
    "version": "1.15.0"
  },
  {
    "name": "debug",
    "version": "2.6.9"
  },
  {
    "name": "fs-extra",
    "version": "10.1.0"
  },
  {
    "name": "micromark-util-decode-string",
    "version": "1.0.2"
  },
  {
    "name": "@types/node",
    "version": "18.11.17"
  },
  {
    "name": "escodegen",
    "version": "1.14.3"
  },
  {
    "name": "micromark-core-commonmark",
    "version": "1.0.6"
  },
  {
    "name": "strip-bom",
    "version": "3.0.0"
  },
  {
    "name": "to-regex-range",
    "version": "5.0.1"
  },
  {
    "name": "cache-base",
    "version": "1.0.1"
  },
  {
    "name": "fast-glob",
    "version": "3.2.11"
  },
  {
    "name": "is-string",
    "version": "1.0.7"
  },
  {
    "name": "onetime",
    "version": "6.0.0"
  },
  {
    "name": "fs-minipass",
    "version": "2.1.0"
  },
  {
    "name": "ipaddr.js",
    "version": "1.9.1"
  },
  {
    "name": "minizlib",
    "version": "2.1.2"
  },
  {
    "name": "rollup-pluginutils",
    "version": "2.8.2"
  },
  {
    "name": "snapdragon",
    "version": "0.8.2"
  },
  {
    "name": "@babel/plugin-transform-block-scoped-functions",
    "version": "7.18.6"
  },
  {
    "name": "@jridgewell/resolve-uri",
    "version": "3.1.0"
  },
  {
    "name": "source-map-support",
    "version": "0.5.21"
  },
  {
    "name": "eslint-import-resolver-typescript",
    "version": "2.7.1"
  },
  {
    "name": "locate-path",
    "version": "3.0.0"
  },
  {
    "name": "@npmcli/fs",
    "version": "1.1.1"
  },
  {
    "name": "restore-cursor",
    "version": "3.1.0"
  },
  {
    "name": "unist-util-remove-position",
    "version": "4.0.1"
  },
  {
    "name": "is-gzip",
    "version": "1.0.0"
  },
  {
    "name": "json-parse-even-better-errors",
    "version": "2.3.1"
  },
  {
    "name": "@babel/plugin-transform-parameters",
    "version": "7.20.7"
  },
  {
    "name": "is-weakref",
    "version": "1.0.2"
  },
  {
    "name": "regenerate",
    "version": "1.4.2"
  },
  {
    "name": "ts-toolbelt",
    "version": "6.15.5"
  },
  {
    "name": "ui",
    "version": "0.2.4"
  },
  {
    "name": "@babel/plugin-proposal-private-property-in-object",
    "version": "7.20.5"
  },
  {
    "name": "ast-types",
    "version": "0.15.2"
  },
  {
    "name": "is-callable",
    "version": "1.2.7"
  },
  {
    "name": "socks",
    "version": "2.7.1"
  },
  {
    "name": "unset-value",
    "version": "1.0.0"
  },
  {
    "name": "@esbuild/darwin-x64",
    "version": "0.16.3"
  },
  {
    "name": "@nodelib/fs.scandir",
    "version": "2.1.5"
  },
  {
    "name": "snapdragon-util",
    "version": "3.0.1"
  },
  {
    "name": "imurmurhash",
    "version": "0.1.4"
  },
  {
    "name": "set-cookie-parser",
    "version": "2.5.1"
  },
  {
    "name": "through",
    "version": "2.3.8"
  },
  {
    "name": "levn",
    "version": "0.3.0"
  },
  {
    "name": "ms",
    "version": "2.1.2"
  },
  {
    "name": "character-entities",
    "version": "2.0.2"
  },
  {
    "name": "esbuild-android-64",
    "version": "0.14.47"
  },
  {
    "name": "react-router-dom",
    "version": "6.5.0"
  },
  {
    "name": "@babel/plugin-proposal-async-generator-functions",
    "version": "7.20.7"
  },
  {
    "name": "@esbuild/linux-ppc64",
    "version": "0.16.3"
  },
  {
    "name": "object-assign",
    "version": "4.1.1"
  },
  {
    "name": "regenerator-runtime",
    "version": "0.13.11"
  },
  {
    "name": "cacheable-lookup",
    "version": "5.0.4"
  },
  {
    "name": "is-number-object",
    "version": "1.0.7"
  },
  {
    "name": "arr-diff",
    "version": "4.0.0"
  },
  {
    "name": "atob",
    "version": "2.1.2"
  },
  {
    "name": "defer-to-connect",
    "version": "2.0.1"
  },
  {
    "name": "doctrine",
    "version": "2.1.0"
  },
  {
    "name": "process-nextick-args",
    "version": "2.0.1"
  },
  {
    "name": "@esbuild/linux-loong64",
    "version": "0.16.3"
  },
  {
    "name": "@remix-run/express",
    "version": "1.9.0"
  },
  {
    "name": "promise-inflight",
    "version": "1.0.1"
  },
  {
    "name": "readdirp",
    "version": "3.6.0"
  },
  {
    "name": "clean-stack",
    "version": "2.2.0"
  },
  {
    "name": "jsesc",
    "version": "3.0.2"
  },
  {
    "name": "lodash",
    "version": "4.17.21"
  },
  {
    "name": "@types/prop-types",
    "version": "15.7.5"
  },
  {
    "name": "ast-types-flow",
    "version": "0.0.7"
  },
  {
    "name": "eslint-plugin-react-hooks",
    "version": "4.6.0"
  },
  {
    "name": "is-core-module",
    "version": "2.11.0"
  },
  {
    "name": "@babel/traverse",
    "version": "7.20.10"
  },
  {
    "name": "@types/estree-jsx",
    "version": "1.0.0"
  },
  {
    "name": "merge-descriptors",
    "version": "1.0.1"
  },
  {
    "name": "micromark-extension-mdx-md",
    "version": "1.0.0"
  },
  {
    "name": "gunzip-maybe",
    "version": "1.4.2"
  },
  {
    "name": "loose-envify",
    "version": "1.4.0"
  },
  {
    "name": "micromark-util-combine-extensions",
    "version": "1.0.0"
  },
  {
    "name": "morgan",
    "version": "1.10.0"
  },
  {
    "name": "compression",
    "version": "1.7.4"
  },
  {
    "name": "globals",
    "version": "11.12.0"
  },
  {
    "name": "is-plain-object",
    "version": "2.0.4"
  },
  {
    "name": "mdast-util-frontmatter",
    "version": "1.0.0"
  },
  {
    "name": "util-deprecate",
    "version": "1.0.2"
  },
  {
    "name": "astring",
    "version": "1.8.4"
  },
  {
    "name": "estree-util-value-to-estree",
    "version": "1.3.0"
  },
  {
    "name": "pump",
    "version": "3.0.0"
  },
  {
    "name": "is-extglob",
    "version": "2.1.1"
  },
  {
    "name": "on-finished",
    "version": "2.3.0"
  },
  {
    "name": "regenerator-transform",
    "version": "0.15.1"
  },
  {
    "name": "@remix-run/node",
    "version": "1.9.0"
  },
  {
    "name": "degenerator",
    "version": "3.0.2"
  },
  {
    "name": "@edge-runtime/vm",
    "version": "2.0.0"
  },
  {
    "name": "tmp",
    "version": "0.0.33"
  },
  {
    "name": "@babel/plugin-transform-async-to-generator",
    "version": "7.20.7"
  },
  {
    "name": "globby",
    "version": "11.1.0"
  },
  {
    "name": "jsesc",
    "version": "2.5.2"
  },
  {
    "name": "fast-deep-equal",
    "version": "3.1.3"
  },
  {
    "name": "find-up",
    "version": "3.0.0"
  },
  {
    "name": "is-plain-obj",
    "version": "3.0.0"
  },
  {
    "name": "minipass-collect",
    "version": "1.0.2"
  },
  {
    "name": "os-tmpdir",
    "version": "1.0.2"
  },
  {
    "name": "@esbuild/win32-ia32",
    "version": "0.16.3"
  },
  {
    "name": "http-proxy-agent",
    "version": "4.0.1"
  },
  {
    "name": "object-inspect",
    "version": "1.12.2"
  },
  {
    "name": "proxy-agent",
    "version": "5.0.0"
  },
  {
    "name": "@babel/plugin-transform-destructuring",
    "version": "7.20.7"
  },
  {
    "name": "minimist",
    "version": "1.2.7"
  },
  {
    "name": "run-async",
    "version": "2.4.1"
  },
  {
    "name": "which-typed-array",
    "version": "1.1.9"
  },
  {
    "name": "zwitch",
    "version": "2.0.4"
  },
  {
    "name": "@babel/plugin-proposal-optional-catch-binding",
    "version": "7.18.6"
  },
  {
    "name": "object.entries",
    "version": "1.1.6"
  },
  {
    "name": "collection-visit",
    "version": "1.0.0"
  },
  {
    "name": "content-type",
    "version": "1.0.4"
  },
  {
    "name": "optionator",
    "version": "0.8.3"
  },
  {
    "name": "babel-plugin-polyfill-corejs3",
    "version": "0.6.0"
  },
  {
    "name": "bytes",
    "version": "3.1.2"
  },
  {
    "name": "browserslist",
    "version": "4.21.4"
  },
  {
    "name": "object-visit",
    "version": "1.0.1"
  },
  {
    "name": "ts-morph",
    "version": "12.0.0"
  },
  {
    "name": "mimic-response",
    "version": "3.1.0"
  },
  {
    "name": "parseurl",
    "version": "1.3.3"
  },
  {
    "name": "encodeurl",
    "version": "1.0.2"
  },
  {
    "name": "pkg-dir",
    "version": "3.0.0"
  },
  {
    "name": "@esbuild/linux-mips64el",
    "version": "0.16.3"
  },
  {
    "name": "@types/ms",
    "version": "0.7.31"
  },
  {
    "name": "chownr",
    "version": "1.1.4"
  },
  {
    "name": "ip",
    "version": "2.0.0"
  },
  {
    "name": "@types/mdurl",
    "version": "1.0.2"
  },
  {
    "name": "repeat-string",
    "version": "1.6.1"
  },
  {
    "name": "@babel/preset-typescript",
    "version": "7.18.6"
  },
  {
    "name": "esbuild-linux-mips64le",
    "version": "0.14.47"
  },
  {
    "name": "send",
    "version": "0.18.0"
  },
  {
    "name": "to-regex-range",
    "version": "2.1.1"
  },
  {
    "name": "cookie-signature",
    "version": "1.0.6"
  },
  {
    "name": "glob",
    "version": "7.1.7"
  },
  {
    "name": "mdast-util-mdx-jsx",
    "version": "1.2.0"
  },
  {
    "name": "path-key",
    "version": "3.1.1"
  },
  {
    "name": "@esbuild/freebsd-x64",
    "version": "0.16.3"
  },
  {
    "name": "@remix-run/vercel",
    "version": "1.9.0"
  },
  {
    "name": "anymatch",
    "version": "3.1.3"
  },
  {
    "name": "micromatch",
    "version": "4.0.5"
  },
  {
    "name": "@babel/plugin-proposal-class-properties",
    "version": "7.18.6"
  },
  {
    "name": "@esbuild/linux-arm64",
    "version": "0.16.3"
  },
  {
    "name": "isobject",
    "version": "3.0.1"
  },
  {
    "name": "js-yaml",
    "version": "4.1.0"
  },
  {
    "name": "shallow-clone",
    "version": "3.0.1"
  },
  {
    "name": "string.prototype.trimend",
    "version": "1.0.6"
  },
  {
    "name": "unpipe",
    "version": "1.0.0"
  },
  {
    "name": "array.prototype.tosorted",
    "version": "1.1.1"
  },
  {
    "name": "cookie",
    "version": "0.4.2"
  },
  {
    "name": "inline-style-parser",
    "version": "0.1.1"
  },
  {
    "name": "inquirer",
    "version": "8.2.5"
  },
  {
    "name": "is-number",
    "version": "7.0.0"
  },
  {
    "name": "@babel/plugin-syntax-import-assertions",
    "version": "7.20.0"
  },
  {
    "name": "detect-indent",
    "version": "6.1.0"
  },
  {
    "name": "emoji-regex",
    "version": "8.0.0"
  },
  {
    "name": "eslint-visitor-keys",
    "version": "3.3.0"
  },
  {
    "name": "path-parse",
    "version": "1.0.7"
  },
  {
    "name": "std",
    "version": "0.1.40"
  },
  {
    "name": "@esbuild/linux-ia32",
    "version": "0.16.3"
  },
  {
    "name": "@typescript-eslint/scope-manager",
    "version": "5.47.0"
  },
  {
    "name": "ws",
    "version": "7.5.9"
  },
  {
    "name": "@types/keyv",
    "version": "3.1.4"
  },
  {
    "name": "convert-source-map",
    "version": "1.9.0"
  },
  {
    "name": "babel-plugin-polyfill-corejs2",
    "version": "0.3.3"
  },
  {
    "name": "recast",
    "version": "0.20.5"
  },
  {
    "name": "array-includes",
    "version": "3.1.6"
  },
  {
    "name": "dequal",
    "version": "2.0.3"
  },
  {
    "name": "@gar/promisify",
    "version": "1.1.3"
  },
  {
    "name": "argparse",
    "version": "2.0.1"
  },
  {
    "name": "functions-have-names",
    "version": "1.2.3"
  },
  {
    "name": "scheduler",
    "version": "0.23.0"
  },
  {
    "name": "ajv",
    "version": "8.6.3"
  },
  {
    "name": "is-data-descriptor",
    "version": "1.0.0"
  },
  {
    "name": "path-key",
    "version": "4.0.0"
  },
  {
    "name": "@remix-run/web-form-data",
    "version": "3.0.4"
  },
  {
    "name": "acorn",
    "version": "8.8.1"
  },
  {
    "name": "es-abstract",
    "version": "1.20.5"
  },
  {
    "name": "p-try",
    "version": "2.2.0"
  },
  {
    "name": "@babel/plugin-syntax-class-properties",
    "version": "7.12.13"
  },
  {
    "name": "@types/hast",
    "version": "2.3.4"
  },
  {
    "name": "is-plain-obj",
    "version": "4.1.0"
  },
  {
    "name": "react",
    "version": "18.2.0"
  },
  {
    "name": "@ampproject/remapping",
    "version": "2.2.0"
  },
  {
    "name": "@babel/types",
    "version": "7.20.7"
  },
  {
    "name": "available-typed-arrays",
    "version": "1.0.5"
  },
  {
    "name": "function.prototype.name",
    "version": "1.1.5"
  },
  {
    "name": "json-schema-traverse",
    "version": "1.0.0"
  },
  {
    "name": "unist-util-is",
    "version": "5.1.1"
  },
  {
    "name": "@remix-run/web-stream",
    "version": "1.0.3"
  },
  {
    "name": "arg",
    "version": "4.1.3"
  },
  {
    "name": "has",
    "version": "1.0.3"
  },
  {
    "name": "@babel/plugin-proposal-object-rest-spread",
    "version": "7.20.7"
  },
  {
    "name": "ansi-regex",
    "version": "5.0.1"
  },
  {
    "name": "kind-of",
    "version": "4.0.0"
  },
  {
    "name": "@babel/plugin-transform-spread",
    "version": "7.20.7"
  },
  {
    "name": "ast-types",
    "version": "0.14.2"
  },
  {
    "name": "node-releases",
    "version": "2.0.8"
  },
  {
    "name": "destroy",
    "version": "1.2.0"
  },
  {
    "name": "is-stream",
    "version": "2.0.1"
  },
  {
    "name": "array-unique",
    "version": "0.3.2"
  },
  {
    "name": "eslint-plugin-jsx-a11y",
    "version": "6.6.1"
  },
  {
    "name": "get-uri",
    "version": "3.0.2"
  },
  {
    "name": "node-addon-api",
    "version": "1.7.2"
  },
  {
    "name": "punycode",
    "version": "2.1.1"
  },
  {
    "name": "@babel/plugin-proposal-optional-chaining",
    "version": "7.20.7"
  },
  {
    "name": "@vercel/static-config",
    "version": "2.0.6"
  },
  {
    "name": "is-typed-array",
    "version": "1.1.10"
  },
  {
    "name": "write-file-atomic",
    "version": "2.4.3"
  },
  {
    "name": "indent-string",
    "version": "4.0.0"
  },
  {
    "name": "map-visit",
    "version": "1.0.0"
  },
  {
    "name": "readable-stream",
    "version": "2.3.7"
  },
  {
    "name": "toidentifier",
    "version": "1.0.1"
  },
  {
    "name": "@jridgewell/sourcemap-codec",
    "version": "1.4.14"
  },
  {
    "name": "execa",
    "version": "5.1.1"
  },
  {
    "name": "is-accessor-descriptor",
    "version": "1.0.0"
  },
  {
    "name": "pump",
    "version": "2.0.1"
  },
  {
    "name": "ssri",
    "version": "8.0.1"
  },
  {
    "name": "uri-js",
    "version": "4.4.1"
  },
  {
    "name": "@babel/plugin-proposal-dynamic-import",
    "version": "7.18.6"
  },
  {
    "name": "@next/eslint-plugin-next",
    "version": "12.3.4"
  },
  {
    "name": "micromark-util-sanitize-uri",
    "version": "1.1.0"
  },
  {
    "name": "micromark-util-types",
    "version": "1.0.2"
  },
  {
    "name": "range-parser",
    "version": "1.2.1"
  },
  {
    "name": "fs-constants",
    "version": "1.0.0"
  },
  {
    "name": "get-intrinsic",
    "version": "1.1.3"
  },
  {
    "name": "@babel/helper-split-export-declaration",
    "version": "7.18.6"
  },
  {
    "name": "p-locate",
    "version": "3.0.0"
  },
  {
    "name": "@types/estree-jsx",
    "version": "0.0.1"
  },
  {
    "name": "electron-to-chromium",
    "version": "1.4.284"
  },
  {
    "name": "regexp.prototype.flags",
    "version": "1.4.3"
  },
  {
    "name": "tslib",
    "version": "2.4.1"
  },
  {
    "name": "word-wrap",
    "version": "1.2.3"
  },
  {
    "name": "micromark-factory-title",
    "version": "1.0.2"
  },
  {
    "name": "pretty-bytes",
    "version": "5.6.0"
  },
  {
    "name": "cookie-signature",
    "version": "1.2.0"
  },
  {
    "name": "human-signals",
    "version": "2.1.0"
  },
  {
    "name": "@babel/plugin-transform-computed-properties",
    "version": "7.20.7"
  },
  {
    "name": "color-convert",
    "version": "2.0.1"
  },
  {
    "name": "periscopic",
    "version": "3.0.4"
  },
  {
    "name": "@babel/plugin-transform-block-scoping",
    "version": "7.20.11"
  },
  {
    "name": "longest-streak",
    "version": "3.1.0"
  },
  {
    "name": "esbuild-linux-ppc64le",
    "version": "0.14.47"
  },
  {
    "name": "get-value",
    "version": "2.0.6"
  },
  {
    "name": "resolve",
    "version": "1.22.1"
  },
  {
    "name": "smart-buffer",
    "version": "4.2.0"
  },
  {
    "name": "unist-util-position",
    "version": "4.0.3"
  },
  {
    "name": "ansi-styles",
    "version": "3.2.1"
  },
  {
    "name": "character-entities-html4",
    "version": "2.1.0"
  },
  {
    "name": "npm-run-path",
    "version": "4.0.1"
  },
  {
    "name": "@babel/helper-create-regexp-features-plugin",
    "version": "7.20.5"
  },
  {
    "name": "log-symbols",
    "version": "4.1.0"
  },
  {
    "name": "is-interactive",
    "version": "1.0.0"
  },
  {
    "name": "ansi-escapes",
    "version": "4.3.2"
  },
  {
    "name": "babel-plugin-polyfill-regenerator",
    "version": "0.4.1"
  },
  {
    "name": "file-uri-to-path",
    "version": "2.0.0"
  },
  {
    "name": "fresh",
    "version": "0.5.2"
  },
  {
    "name": "globby",
    "version": "10.0.0"
  },
  {
    "name": "to-regex",
    "version": "3.0.2"
  },
  {
    "name": "@babel/plugin-syntax-top-level-await",
    "version": "7.14.5"
  },
  {
    "name": "@babel/plugin-transform-classes",
    "version": "7.20.7"
  },
  {
    "name": "is-descriptor",
    "version": "0.1.6"
  },
  {
    "name": "@babel/helper-module-imports",
    "version": "7.18.6"
  },
  {
    "name": "flow-parser",
    "version": "0.196.3"
  },
  {
    "name": "etag",
    "version": "1.8.1"
  },
  {
    "name": "fast-glob",
    "version": "3.2.12"
  },
  {
    "name": "has-values",
    "version": "0.1.4"
  },
  {
    "name": "is-buffer",
    "version": "1.1.6"
  },
  {
    "name": "kind-of",
    "version": "3.2.2"
  },
  {
    "name": "micromark-util-subtokenize",
    "version": "1.0.2"
  },
  {
    "name": "@babel/plugin-proposal-json-strings",
    "version": "7.18.6"
  },
  {
    "name": "@typescript-eslint/types",
    "version": "5.47.0"
  },
  {
    "name": "vfile-location",
    "version": "4.0.1"
  },
  {
    "name": "@types/strip-json-comments",
    "version": "0.0.30"
  },
  {
    "name": "posix-character-classes",
    "version": "0.1.1"
  },
  {
    "name": "unified",
    "version": "10.1.2"
  },
  {
    "name": "vfile-message",
    "version": "3.1.3"
  },
  {
    "name": "web-encoding",
    "version": "1.1.5"
  },
  {
    "name": "array.prototype.flat",
    "version": "1.3.1"
  },
  {
    "name": "pumpify",
    "version": "1.5.1"
  },
  {
    "name": "es-to-primitive",
    "version": "1.2.1"
  },
  {
    "name": "estraverse",
    "version": "4.3.0"
  },
  {
    "name": "has-symbols",
    "version": "1.0.3"
  },
  {
    "name": "strip-ansi",
    "version": "6.0.1"
  },
  {
    "name": "tar-fs",
    "version": "2.1.1"
  },
  {
    "name": "toml",
    "version": "3.0.0"
  },
  {
    "name": "@types/node",
    "version": "14.18.33"
  },
  {
    "name": "@zxing/text-encoding",
    "version": "0.9.0"
  },
  {
    "name": "xregexp",
    "version": "2.0.0"
  },
  {
    "name": "tsconfig-paths",
    "version": "4.1.1"
  },
  {
    "name": "typescript",
    "version": "4.3.4"
  },
  {
    "name": "esprima",
    "version": "4.0.1"
  },
  {
    "name": "micromark-util-encode",
    "version": "1.0.1"
  },
  {
    "name": "@jridgewell/gen-mapping",
    "version": "0.3.2"
  },
  {
    "name": "diff",
    "version": "4.0.2"
  },
  {
    "name": "buffer-from",
    "version": "1.1.2"
  },
  {
    "name": "estree-walker",
    "version": "2.0.2"
  },
  {
    "name": "netmask",
    "version": "2.0.2"
  },
  {
    "name": "regenerate-unicode-properties",
    "version": "10.1.0"
  },
  {
    "name": "unist-builder",
    "version": "3.0.0"
  },
  {
    "name": "@babel/helper-plugin-utils",
    "version": "7.20.2"
  },
  {
    "name": "@babel/helper-wrap-function",
    "version": "7.20.5"
  },
  {
    "name": "@babel/plugin-proposal-numeric-separator",
    "version": "7.18.6"
  },
  {
    "name": "@types/cookie",
    "version": "0.4.1"
  },
  {
    "name": "on-headers",
    "version": "1.0.2"
  },
  {
    "name": "react-dom",
    "version": "18.2.0"
  },
  {
    "name": "source-map-resolve",
    "version": "0.5.3"
  },
  {
    "name": "chalk",
    "version": "2.4.2"
  },
  {
    "name": "mdast-util-mdxjs-esm",
    "version": "1.3.0"
  },
  {
    "name": "regjsparser",
    "version": "0.9.1"
  },
  {
    "name": "micromark-util-decode-numeric-character-reference",
    "version": "1.0.0"
  },
  {
    "name": "regex-not",
    "version": "1.0.2"
  },
  {
    "name": "has-value",
    "version": "0.3.1"
  },
  {
    "name": "set-value",
    "version": "2.0.1"
  },
  {
    "name": "@babel/plugin-syntax-object-rest-spread",
    "version": "7.8.3"
  },
  {
    "name": "figures",
    "version": "3.2.0"
  },
  {
    "name": "unist-util-position-from-estree",
    "version": "1.1.1"
  },
  {
    "name": "has-value",
    "version": "1.0.0"
  },
  {
    "name": "sort-object-keys",
    "version": "1.1.3"
  },
  {
    "name": "queue-microtask",
    "version": "1.2.3"
  },
  {
    "name": "@esbuild/linux-riscv64",
    "version": "0.16.3"
  },
  {
    "name": "onetime",
    "version": "5.1.2"
  },
  {
    "name": "react-router",
    "version": "6.5.0"
  },
  {
    "name": "hast-util-whitespace",
    "version": "2.0.0"
  },
  {
    "name": "is-glob",
    "version": "4.0.3"
  },
  {
    "name": "bl",
    "version": "4.1.0"
  },
  {
    "name": "cookie",
    "version": "0.5.0"
  },
  {
    "name": "signal-exit",
    "version": "3.0.7"
  },
  {
    "name": "@esbuild/linux-s390x",
    "version": "0.16.3"
  },
  {
    "name": "quick-lru",
    "version": "5.1.1"
  },
  {
    "name": "resolve",
    "version": "2.0.0-next.4"
  },
  {
    "name": "@web3-storage/multipart-parser",
    "version": "1.0.0"
  },
  {
    "name": "normalize-path",
    "version": "3.0.0"
  },
  {
    "name": "browserify-zlib",
    "version": "0.1.4"
  },
  {
    "name": "clone-deep",
    "version": "4.0.1"
  },
  {
    "name": "end-of-stream",
    "version": "1.4.4"
  },
  {
    "name": "json-buffer",
    "version": "3.0.1"
  },
  {
    "name": "@babel/register",
    "version": "7.18.9"
  },
  {
    "name": "agent-base",
    "version": "6.0.2"
  },
  {
    "name": "defaults",
    "version": "1.0.4"
  },
  {
    "name": "esbuild-netbsd-64",
    "version": "0.14.47"
  },
  {
    "name": "isarray",
    "version": "0.0.1"
  },
  {
    "name": "minimatch",
    "version": "3.1.2"
  },
  {
    "name": "@esbuild/win32-x64",
    "version": "0.16.3"
  },
  {
    "name": "base",
    "version": "0.11.2"
  },
  {
    "name": "kleur",
    "version": "4.1.5"
  },
  {
    "name": "to-fast-properties",
    "version": "2.0.0"
  },
  {
    "name": "merge-stream",
    "version": "2.0.0"
  },
  {
    "name": "resolve-alpn",
    "version": "1.2.1"
  },
  {
    "name": "whatwg-url",
    "version": "5.0.0"
  },
  {
    "name": "@babel/plugin-transform-dotall-regex",
    "version": "7.18.6"
  },
  {
    "name": "class-utils",
    "version": "0.3.6"
  },
  {
    "name": "gopd",
    "version": "1.0.1"
  },
  {
    "name": "jsonfile",
    "version": "6.1.0"
  },
  {
    "name": "braces",
    "version": "3.0.2"
  },
  {
    "name": "estree-walker",
    "version": "0.6.1"
  },
  {
    "name": "esbuild-openbsd-64",
    "version": "0.14.47"
  },
  {
    "name": "file-uri-to-path",
    "version": "1.0.0"
  },
  {
    "name": "type-fest",
    "version": "0.21.3"
  },
  {
    "name": "unicode-match-property-ecmascript",
    "version": "2.0.0"
  },
  {
    "name": "@babel/plugin-transform-object-super",
    "version": "7.18.6"
  },
  {
    "name": "@vercel/node-bridge",
    "version": "3.1.2"
  },
  {
    "name": "is-reference",
    "version": "3.0.0"
  },
  {
    "name": "comma-separated-tokens",
    "version": "2.0.3"
  },
  {
    "name": "human-signals",
    "version": "3.0.1"
  },
  {
    "name": "require-from-string",
    "version": "2.0.2"
  },
  {
    "name": "wrap-ansi",
    "version": "7.0.0"
  },
  {
    "name": "@types/unist",
    "version": "2.0.6"
  },
  {
    "name": "esbuild-freebsd-64",
    "version": "0.14.47"
  },
  {
    "name": "esbuild-linux-64",
    "version": "0.14.47"
  },
  {
    "name": "which-boxed-primitive",
    "version": "1.0.2"
  },
  {
    "name": "@npmcli/package-json",
    "version": "2.0.0"
  },
  {
    "name": "esbuild-sunos-64",
    "version": "0.14.47"
  },
  {
    "name": "lru-cache",
    "version": "5.1.1"
  },
  {
    "name": "@babel/helper-annotate-as-pure",
    "version": "7.18.6"
  },
  {
    "name": "@babel/helper-member-expression-to-functions",
    "version": "7.20.7"
  },
  {
    "name": "string-width",
    "version": "4.2.3"
  },
  {
    "name": "tr46",
    "version": "0.0.3"
  },
  {
    "name": "type-check",
    "version": "0.3.2"
  },
  {
    "name": "@remix-run/server-runtime",
    "version": "1.9.0"
  },
  {
    "name": "micromark-util-resolve-all",
    "version": "1.0.0"
  },
  {
    "name": "@babel/plugin-transform-unicode-regex",
    "version": "7.18.6"
  },
  {
    "name": "mixin-deep",
    "version": "1.3.2"
  },
  {
    "name": "map-cache",
    "version": "0.2.2"
  },
  {
    "name": "universalify",
    "version": "0.1.2"
  },
  {
    "name": "commondir",
    "version": "1.0.1"
  },
  {
    "name": "glob-parent",
    "version": "5.1.2"
  },
  {
    "name": "pretty-ms",
    "version": "7.0.1"
  },
  {
    "name": "@babel/helper-validator-identifier",
    "version": "7.19.1"
  },
  {
    "name": "aggregate-error",
    "version": "3.1.0"
  },
  {
    "name": "web-streams-polyfill",
    "version": "3.2.1"
  },
  {
    "name": "esbuild-windows-arm64",
    "version": "0.14.47"
  },
  {
    "name": "uvu",
    "version": "0.5.6"
  },
  {
    "name": "make-dir",
    "version": "2.1.0"
  },
  {
    "name": "universalify",
    "version": "2.0.0"
  },
  {
    "name": "@babel/plugin-syntax-export-namespace-from",
    "version": "7.8.3"
  },
  {
    "name": "@esbuild/netbsd-x64",
    "version": "0.16.3"
  },
  {
    "name": "get-symbol-description",
    "version": "1.0.0"
  },
  {
    "name": "isexe",
    "version": "2.0.0"
  },
  {
    "name": "path-to-regexp",
    "version": "0.1.7"
  },
  {
    "name": "@babel/plugin-proposal-logical-assignment-operators",
    "version": "7.20.7"
  },
  {
    "name": "execa",
    "version": "6.1.0"
  },
  {
    "name": "xdm",
    "version": "2.1.0"
  },
  {
    "name": "run-parallel",
    "version": "1.2.0"
  },
  {
    "name": "utils-merge",
    "version": "1.0.1"
  },
  {
    "name": "@typescript-eslint/visitor-keys",
    "version": "5.47.0"
  },
  {
    "name": "has-bigints",
    "version": "1.0.2"
  },
  {
    "name": "yallist",
    "version": "4.0.0"
  },
  {
    "name": "@babel/compat-data",
    "version": "7.20.10"
  },
  {
    "name": "axe-core",
    "version": "4.6.1"
  },
  {
    "name": "@babel/preset-env",
    "version": "7.20.2"
  },
  {
    "name": "detect-newline",
    "version": "3.1.0"
  },
  {
    "name": "find-cache-dir",
    "version": "2.1.0"
  },
  {
    "name": "wcwidth",
    "version": "1.0.1"
  },
  {
    "name": "@babel/plugin-bugfix-v8-spread-parameters-in-optional-chaining",
    "version": "7.20.7"
  },
  {
    "name": "@babel/plugin-syntax-numeric-separator",
    "version": "7.10.4"
  },
  {
    "name": "@typescript-eslint/typescript-estree",
    "version": "5.47.0"
  },
  {
    "name": "define-property",
    "version": "0.2.5"
  },
  {
    "name": "esbuild-android-arm64",
    "version": "0.14.47"
  },
  {
    "name": "get-port",
    "version": "5.1.1"
  },
  {
    "name": "object.values",
    "version": "1.1.6"
  },
  {
    "name": "recast",
    "version": "0.21.5"
  },
  {
    "name": "@babel/helper-validator-option",
    "version": "7.18.6"
  },
  {
    "name": "@babel/plugin-transform-exponentiation-operator",
    "version": "7.18.6"
  },
  {
    "name": "webidl-conversions",
    "version": "3.0.1"
  },
  {
    "name": "pako",
    "version": "0.2.9"
  },
  {
    "name": "urix",
    "version": "0.1.0"
  },
  {
    "name": "extglob",
    "version": "2.0.4"
  },
  {
    "name": "mime-db",
    "version": "1.52.0"
  },
  {
    "name": "fault",
    "version": "2.0.1"
  },
  {
    "name": "union-value",
    "version": "1.0.1"
  },
  {
    "name": "@babel/helper-define-polyfill-provider",
    "version": "0.3.3"
  },
  {
    "name": "@types/glob",
    "version": "7.2.0"
  },
  {
    "name": "unique-filename",
    "version": "1.1.1"
  },
  {
    "name": "format",
    "version": "0.2.2"
  },
  {
    "name": "once",
    "version": "1.4.0"
  },
  {
    "name": "balanced-match",
    "version": "1.0.2"
  }
]
